,I,P,S,B,K,A
0,2.0,9.448389215500503,1.0,8.448389215500503,0.49122888713683144,-0.562243464530445
1,2.0,0.3705249313103626,1.0,0.3705249313103627,0.8856306812897001,1.1379414982363356
2,2.0,-2.265265214697049,0.0,-4.265265214697049,0.7128863671920344,2.1746102306803694
3,2.0,1.9684944561448985,1.0,-0.031505543855101514,0.5878619646223404,1.06197776261894
4,2.0,4.51457578758588,1.0,2.51457578758588,0.6842072291448393,-0.5322688406196994
5,2.0,5.55270328969813,1.0,5.55270328969813,0.39556633285099085,12.122056859372904
6,2.0,3.9373508440965983,0.0,3.9373508440965983,0.4801863784979296,-2.067104917198942
7,2.0,-1.687405045976524,1.0,-2.687405045976524,0.6837843336763336,2.7488132631179685
8,2.0,2.0973931125283545,1.0,1.0973931125283545,0.4575433154796164,0.6968142743925867
9,2.0,-2.2750009132045506,1.0,-3.2750009132045506,0.5159146838329668,-0.035201282990450444
10,2.0,5.7619297423203575,1.0,5.7619297423203575,0.6403985748759722,1.1465930205163883
11,2.0,1.3813250884580872,1.0,-0.6186749115419128,0.7241200580202463,0.937312016429167
12,2.0,0.5479206326312693,1.0,-0.45207936736873067,0.3969279495968012,2.4662101507913556
13,2.0,4.577588380484023,1.0,2.5775883804840234,0.7123077495598635,0.37307904464519714
14,2.0,-0.4456131669111243,0.0,-2.4456131669111243,0.6991399841856725,1.992353751012879
15,2.0,1.5907110734845182,1.0,-0.40928892651548177,0.5149566647019345,1.7129300208787024
16,2.0,1.1072953800633791,0.0,1.1072953800633791,0.6463019112414162,0.11859649172195448
17,2.0,0.8828590438991016,1.0,0.8828590438991015,0.31681656549184456,0.741502129251741
18,2.0,3.9286202809607955,1.0,2.9286202809607955,0.497985617502542,4.9948057144827125
19,2.0,1.5486864577157529,1.0,-0.45131354228424714,0.5022110630646864,0.9315348734849238
20,2.0,1.1200152355153699,1.0,0.12001523551536986,0.2711030404426279,0.864128720888311
21,2.0,-1.7313437456284442,1.0,-2.731343745628444,0.6666796294414944,-0.7149129248663393
22,2.0,-3.326470225777606,1.0,-5.326470225777606,0.9871317605168446,6.387372120983733
23,2.0,6.524967495331935,1.0,4.524967495331935,0.2521272482405342,6.489715311340261
24,2.0,1.8464827307599014,1.0,-0.15351726924009856,0.546850210550259,1.2780468693554479
25,2.0,4.589972745782479,0.0,2.589972745782479,0.6588350288365846,0.06117844532711387
26,2.0,-0.00033246488314428446,1.0,-0.0003324648831442012,0.805911479763541,1.0001436076618555
27,2.0,2.901105820761802,0.0,1.901105820761802,0.47019976493359,1.569088903268406
28,2.0,2.2611337045488638,0.0,2.2611337045488638,0.4298158560859937,-1.1648411334789546
29,2.0,4.235530770983337,1.0,2.2355307709833374,0.5844444213009473,-1.0422898319513227
30,2.0,6.459860570156626,1.0,4.459860570156626,0.6033787753912744,0.16226659980812552
31,2.0,-1.3660391022156497,0.0,-2.36603910221565,0.8567011517604662,1.3511625883096399
32,2.0,6.136318231863992,0.0,4.136318231863992,0.3608439812952163,4.164809920710522
33,2.0,0.7903886229470871,1.0,-0.20961137705291288,0.5167330775718523,1.1864280302977392
34,2.0,1.7726940424606425,1.0,-0.22730595753935745,0.4211006846273274,0.8857175744418117
35,2.0,-2.4303620967556077,1.0,-3.4303620967556077,0.7915114093236398,5.538733944260373
36,2.0,-1.2406440335367264,1.0,-1.2406440335367264,0.5991179991853515,-2.744758715380783
37,2.0,3.889556332007112,0.0,1.8895563320071118,0.7669357366727126,-1.8410559335487833
38,2.0,7.25854497901288,1.0,5.25854497901288,0.4442252670055362,1.6707062734564055
39,2.0,3.874159566748156,1.0,1.874159566748156,0.5277509552089998,2.921065895094575
40,2.0,3.716160303818062,1.0,3.7161603038180626,0.808921048504049,-3.565831697795164
41,2.0,5.339329534228253,0.0,5.339329534228253,0.32102853421644695,-1.2645599806576835
42,2.0,3.9583141357168192,0.0,2.958314135716819,0.8076153843472311,-4.274853958430216
43,2.0,-2.000523545640492,1.0,-3.000523545640492,0.3411621971076107,-2.2267363304206005
44,2.0,-0.5988274818006536,0.0,-2.5988274818006536,0.3656711589895451,2.218672976247991
45,2.0,5.04706666609319,1.0,4.04706666609319,0.872907367745303,3.255912263942945
46,2.0,6.1278984021909775,1.0,5.1278984021909775,0.3768518518049408,0.645906887646893
47,2.0,-3.994880056216235,1.0,-3.994880056216235,0.5808160489115463,-8.326641453398668
48,2.0,2.7648805252021766,0.0,0.7648805252021766,0.8059090443359554,-0.3769743979365231
49,2.0,4.26640388338001,1.0,2.2664038833800104,0.3937809152843383,-0.6313292899491132
50,2.0,1.827613527192146,0.0,-0.1723864728078539,0.5854207101449096,0.13035726932617833
51,2.0,0.9625947553133726,0.0,-1.0374052446866275,0.6341665621635739,1.1479645856974625
52,2.0,3.90117899482069,1.0,1.90117899482069,0.7067315960353588,5.2406139193513495
53,2.0,4.634745902313172,1.0,3.6347459023131723,0.44974369244767964,5.654701797516083
54,2.0,-2.467941513623436,0.0,-2.467941513623436,0.8261266458781944,-4.261825716463001
55,2.0,0.7799858252671519,1.0,-1.2200141747328481,0.7989709666946964,-1.6125657189322657
56,2.0,-0.4505443609565094,1.0,-2.4505443609565094,0.9469353701738357,1.2716643671943129
57,2.0,2.1833847886947044,0.0,2.1833847886947044,0.7390846687343097,-1.8712254216454112
58,2.0,1.6106819898533487,0.0,0.6106819898533487,0.3315152947204275,-0.9703018486574129
59,2.0,4.571631579787866,1.0,2.5716315797878657,0.27908028238564675,-4.68862375239469
60,2.0,-2.2053589415960495,0.0,-3.2053589415960495,0.866459044837497,-1.4757894749823235
61,2.0,7.673775039285898,1.0,5.673775039285898,0.5245996701202187,4.542079528176064
62,2.0,-0.6678600522762863,0.0,-1.6678600522762863,0.6455790909652076,-1.3153312241659565
63,2.0,2.345334338962555,0.0,0.34533433896255517,0.3473949160517022,0.18170439843961947
64,2.0,1.0815042237903452,0.0,0.08150422379034516,0.7062361383900028,-0.10268841773692794
65,2.0,-3.3496937725300757,0.0,-4.349693772530076,0.8062998309131661,0.8767812114263372
66,2.0,5.393492471154617,1.0,4.393492471154617,0.8506000113975435,-0.9174801604305869
67,2.0,0.6641909806983266,0.0,-0.3358090193016734,0.5917210592436221,-0.44542474742871063
68,2.0,3.30561504786739,1.0,2.3056150478673896,0.9489412298909286,-1.1871996913997829
69,2.0,2.3350168492845507,0.0,1.3350168492845507,0.4219723500850368,-2.534945626127949
70,2.0,1.0085696425719215,1.0,1.0085696425719215,0.3815257659542888,1.6090612426797573
71,2.0,3.549958600756762,1.0,1.5499586007567618,0.4679282840478664,4.798475631924489
72,2.0,3.823312326908182,0.0,1.823312326908182,0.5591211749233882,-1.5885638255108017
73,2.0,2.7391164513804958,0.0,1.7391164513804958,0.7813569635773521,-2.0762064237089026
74,2.0,2.8192327400285837,0.0,1.8192327400285837,0.45783822909268324,2.384494163704392
75,2.0,-2.9807974795984964,1.0,-4.980797479598497,0.25915874564862956,-0.8706926922582567
76,2.0,1.902657992169713,1.0,1.902657992169713,0.9177032707015476,0.47116921043522664
77,2.0,2.691181673184631,1.0,0.691181673184631,0.7926219184246317,1.2979500918343714
78,2.0,1.0787040285415488,1.0,0.07870402854154879,0.19306306585602187,1.007851933479493
79,2.0,0.5895959828406909,1.0,0.5895959828406907,0.7223484445280928,1.3053061041149092
80,2.0,3.8138633154123016,1.0,1.8138633154123016,0.44651780279139736,-0.795123711914032
81,2.0,2.4883833510188103,0.0,0.48838335101881025,0.3608025581098424,-0.6239178972499436
82,2.0,3.880452741962232,0.0,2.880452741962232,0.3987441188824944,1.5722558344688493
83,2.0,3.366958238575258,1.0,2.3669582385752577,0.5270275765789307,0.7903933990607275
84,2.0,0.30056240232695286,1.0,-1.6994375976730471,0.835553719322197,1.4974615868333552
85,2.0,-0.6494332222786416,1.0,-2.649433222278642,0.7520468781374948,3.773340061722168
86,2.0,-0.8668994939055606,0.0,-2.8668994939055605,0.7059363893214196,-1.7005081514542824
87,2.0,2.918225843253723,1.0,2.9182258432537225,0.7665679034149183,-1.5066605049429755
88,2.0,0.13700343477460075,1.0,-1.8629965652253992,0.7550261609100625,1.6683043674426106
89,2.0,-2.006468396967751,1.0,-2.006468396967751,0.8181055746770618,-2.624086943074977
90,2.0,1.2151824324064775,1.0,-0.7848175675935225,0.6413361984559021,-0.00381611420805128
91,2.0,-1.5590396536958528,1.0,-2.559039653695853,0.7562352830490074,1.4163448148289302
92,2.0,5.160040470148113,1.0,4.160040470148113,0.5297933904244476,1.2585931780987933
93,2.0,1.9862719570258522,1.0,0.9862719570258522,0.8243388416127605,-0.5002027815475809
94,2.0,1.7955234240562878,1.0,1.795523424056288,0.6252165091225061,0.5268840557182697
95,2.0,0.7316097869314728,1.0,0.7316097869314726,0.2713115263304437,0.7676819690684611
96,2.0,4.331918118013599,1.0,3.331918118013599,0.7668026328921067,-2.5245339100753172
97,2.0,0.22463964934497033,0.0,0.2246396493449705,0.5783910617586504,0.0799086053697182
98,2.0,1.2807540746657824,0.0,-0.7192459253342176,0.9357196530252335,0.1165394313896594
99,2.0,4.462650298007478,1.0,2.4626502980074783,0.41277431606497317,0.2311796860586326
