,I,P,S,B,K,A
0,0.5843720947725926,-1.3293512529903704,1.0,0.0,0.5525326341676657,1.0
1,0.6102069780160987,3.781156418048602,1.0,0.0,0.7698003657414348,1.0
2,1.2084893242092747,4.327954148264543,1.0,0.0,0.48873342714551143,1.0
3,0.26245918645162947,1.4365340446709034,1.0,0.0,0.9397888007451635,1.0
4,2.3442598500782337,5.425744380425713,0.0,0.0,0.6783690863172734,0.0
5,-0.4958411769903543,8.121136793751852,1.0,0.0,0.2798648781862626,1.0
6,0.4224502451242059,1.9005758510500916,1.0,0.0,0.7193465784732775,1.0
7,1.6738113801926793,0.869739842745485,1.0,0.0,0.6628454027542245,1.0
8,2.3963500527824513,6.022312943953095,1.0,0.0,0.8588665114681918,1.0
9,-0.2777171161323787,-4.008772169725111,0.0,0.0,0.2497320847462061,0.0
10,0.07065387539774892,9.292499396274655,1.0,0.0,0.3087656806684163,1.0
11,0.4077590963319798,7.640205664022853,1.0,0.0,0.302044950408914,1.0
12,-0.07716781188632543,-0.3647107524095815,0.0,0.0,0.8003579286788404,0.0
13,1.183987274171995,6.527498325853165,0.0,0.0,0.3099496459899849,0.0
14,0.6103040572320055,-4.258765106817158,1.0,0.0,0.5701822965602379,1.0
15,1.543251541688074,0.6307602744940033,1.0,0.0,0.8317784633283818,1.0
16,1.2643096274980188,1.3421955837362889,1.0,0.0,0.7178503735196772,1.0
17,-0.23039235929318608,4.964981795877084,0.0,0.0,0.8302314011554115,0.0
18,0.2845364519223066,4.051593365023774,1.0,0.0,0.19149194002314224,1.0
19,0.8321653474943319,1.9911623310816768,1.0,0.0,0.32553742802246893,1.0
20,1.367905854578261,-2.506823958347567,1.0,0.0,0.5733724718791162,1.0
21,1.3104901204749084,4.700090374138913,1.0,0.0,0.4387520753240356,1.0
22,-0.49196027384296603,1.3686792285850535,0.0,0.0,0.13457577528306544,0.0
23,-0.07905897709100546,-3.4512142712345035,1.0,0.0,0.46157062362473017,1.0
24,-0.814701144834493,-1.2395025161890605,0.0,0.0,0.413191242973257,0.0
25,0.3130647143244481,6.050815620687898,1.0,0.0,0.31509499628264154,1.0
26,1.6802415205125503,2.585783476094732,1.0,0.0,0.7313225408007347,1.0
27,-0.13742491463961248,1.2663260214085423,0.0,0.0,0.6037334226948096,0.0
28,2.769069134813001,2.771620711495052,1.0,0.0,0.8876283542119511,1.0
29,0.3446784138972303,0.4803533254690855,1.0,0.0,0.4962389506978629,1.0
30,-0.31216982696166945,3.1359082631372743,1.0,0.0,0.5014600128559635,1.0
31,1.0359411692952787,8.580568236451882,0.0,0.0,0.5239302303441589,0.0
32,0.36247446223049684,-0.6003364711499675,0.0,0.0,0.6721023219661705,0.0
33,1.6789351857432868,4.800526804760712,1.0,0.0,0.594774250909246,1.0
34,1.141922855792964,1.9644051931461515,1.0,0.0,0.6756456025490677,1.0
35,1.2386802611171108,2.462651017078302,1.0,0.0,0.8283029000896103,1.0
36,1.4308647829084906,6.791832742876272,0.0,0.0,0.17068949096377795,0.0
37,0.6023603207246246,0.44488088949768956,0.0,0.0,0.4094910186512745,0.0
38,-0.4940555407801177,0.5483238700090024,0.0,0.0,0.4685977698918067,0.0
39,0.221708368977954,-2.589825534664121,1.0,0.0,0.37449698875977383,1.0
40,1.1380143694673959,2.8877697355366725,1.0,0.0,0.7086451139998317,1.0
41,0.8931674923633558,4.153698445544655,1.0,0.0,0.6805522728344305,1.0
42,-0.013303838005301605,1.0042315468684673,1.0,0.0,0.8126909304707004,1.0
43,-0.20033219131066485,3.7663424770067033,0.0,0.0,0.8469581332993359,0.0
44,0.6426852778775987,1.81422310411738,1.0,0.0,0.8740481647630673,1.0
45,-0.268649209581848,1.7309661588120608,1.0,0.0,0.6789847412946058,1.0
46,-1.2223766802744307,-0.034437182932427035,1.0,0.0,0.8975457461037931,1.0
47,0.4383393611314341,-2.7102622402022685,1.0,0.0,0.14388702921596977,1.0
48,1.8129433609050265,4.97307549134875,0.0,0.0,0.9524648238490505,0.0
49,2.0949366948874744,4.518351893481247,1.0,0.0,0.4168565652985878,1.0
50,2.2667814891048295,5.024252861860875,1.0,0.0,0.5417645587334537,1.0
51,0.6614184122578237,2.1352804964908634,1.0,0.0,0.4053641309420764,1.0
52,1.5503112616742032,-0.012947798857657844,1.0,0.0,0.46714589031308035,1.0
53,0.19740299083484747,0.9694747154093081,0.0,0.0,0.822287326993385,0.0
54,1.2143709104294713,4.744629591076839,0.0,0.0,0.39862567409522864,0.0
55,0.9139217322120621,2.014576425942514,1.0,0.0,0.33983695749305237,1.0
56,0.6442491051559477,4.193880063416574,1.0,0.0,0.8303764605939008,1.0
57,0.5555361190390788,3.146903052523086,0.0,0.0,0.6423970398047785,0.0
58,1.2779188943376787,3.5525788531698117,1.0,0.0,0.8174189332341681,1.0
59,0.28484642060662585,3.751714783660665,1.0,0.0,0.8489794915257817,1.0
60,1.3839353679922939,-2.394267451469737,1.0,0.0,0.470777491742022,1.0
61,-0.2890619225110204,5.9437890611323185,1.0,0.0,0.5866118015094177,1.0
62,-0.8255316312874161,-0.54625693421818,0.0,0.0,0.2212588464528414,0.0
63,0.01521909856963313,2.369735651234172,0.0,0.0,0.5950006631659392,0.0
64,1.4815577569949516,3.382976066081571,0.0,0.0,0.5875422182788315,0.0
65,1.45273639573532,2.756193124234046,0.0,0.0,0.43181780898149685,0.0
66,-0.25276320551883424,0.6005344833456525,1.0,0.0,0.7659079603891973,1.0
67,1.3134392286867074,1.3786812304134766,0.0,0.0,0.7779473605418594,0.0
68,0.18406724159662458,0.6499566845096331,1.0,0.0,0.6509483128598696,1.0
69,1.6554121693618127,-4.589282389509168,0.0,0.0,0.861210742782508,0.0
70,0.25095217156346267,-0.218290193763095,1.0,0.0,0.5220130455292005,1.0
71,-1.0412139122159574,2.8685858672992692,1.0,0.0,0.5620305077785065,1.0
72,0.7585389147474488,0.698997292340905,0.0,0.0,0.4081917361324847,0.0
73,0.6281426280130017,8.248165633878806,1.0,0.0,0.696366934628059,1.0
74,1.2354202945079131,2.258872796893034,0.0,0.0,0.6210457642309645,0.0
75,-0.8016198361284823,6.138736163472417,1.0,0.0,0.7387614155843826,1.0
76,0.90049730524843,-0.2252310217750081,0.0,0.0,0.4874655209889969,0.0
77,-1.4058309789221235,-0.2480524484596942,1.0,0.0,0.8936292665852722,1.0
78,-0.8492366730785358,3.26177117495308,1.0,0.0,0.918919313015793,1.0
79,1.0381922339244316,-0.988662779285529,1.0,0.0,0.5718690571523398,1.0
80,1.2985223699869912,5.026019905313169,1.0,0.0,0.8550401973443711,1.0
81,1.6872898205109939,6.406018079062074,1.0,0.0,0.45803569290939555,1.0
82,-0.2796600257473483,1.1461870740619367,0.0,0.0,0.28152516784885945,0.0
83,1.5242008740136508,3.893592869496734,0.0,0.0,0.8878719507536168,0.0
84,0.5284202990695606,0.28811289096380954,0.0,0.0,0.8415953118269179,0.0
85,0.44934934369203594,1.5560374112663038,1.0,0.0,0.8502135788780528,1.0
86,-0.36013967336932295,0.9753332587889547,1.0,0.0,0.3670504709125214,1.0
87,1.2894871912662722,0.5242141632145769,1.0,0.0,0.8308365753598683,1.0
88,1.495366243684976,-5.923234775231593,1.0,0.0,0.5963323018581416,1.0
89,-1.0187462781912957,2.7339266345465614,1.0,0.0,0.598824923444467,1.0
90,0.26026351526707275,4.26844548886858,1.0,0.0,0.34479904101294134,1.0
91,1.9929602688964612,5.468658253126638,0.0,0.0,0.800640219520587,0.0
92,1.5683055878510996,3.0569296156672063,1.0,0.0,0.7067733575515995,1.0
93,1.1039361764848077,1.4016361898654695,1.0,0.0,0.8307257810702801,1.0
94,1.3638064499651308,-2.2012637807851663,1.0,0.0,0.9025687679549411,1.0
95,1.3987953471175907,2.1281480550393534,1.0,0.0,0.713248122273408,1.0
96,-0.9528707508129248,-2.471752555966865,1.0,0.0,0.6498179821008176,1.0
97,1.1749140218507519,3.3783572551001395,0.0,0.0,0.8002824579095145,0.0
98,2.564445811270695,-0.8119375342820707,1.0,0.0,0.6265709262920138,1.0
99,2.0416490408491867,3.9692607820443264,1.0,0.0,0.5758396803286732,1.0
100,0.8105254760872251,1.691449967166275,1.0,0.0,0.9381269868289784,1.0
101,0.2845255457494662,-0.7178158836315585,0.0,0.0,0.7866905087070187,0.0
102,0.363467097607134,-2.335237612604561,1.0,0.0,0.5726560281212526,1.0
103,0.8292031965821012,7.430640081560329,0.0,0.0,0.7155333985088027,0.0
104,2.4001085884678717,0.8636072688306848,1.0,0.0,0.7599699107324561,1.0
105,0.2532439854212962,-1.134591292105576,1.0,0.0,0.5259467729161849,1.0
106,-0.9179476790235954,3.2350868061519082,1.0,0.0,0.6513897719600086,1.0
107,0.2519030943741879,1.2892710577888127,1.0,0.0,0.8476379079844428,1.0
108,-0.32591737189864844,2.5850096502251816,1.0,0.0,0.5514374065853306,1.0
109,-0.33863615679284853,-4.844344696727679,0.0,0.0,0.6898797779790009,0.0
110,0.12423785923231141,-2.8978380036479483,1.0,0.0,0.36355417121980194,1.0
111,1.183145110551246,2.876542369443705,1.0,0.0,0.67061939377067,1.0
112,0.7601354919909084,10.33988096102044,1.0,0.0,0.9236595250226656,1.0
113,-0.47103583127555076,6.5940709237633675,1.0,0.0,0.17969866423777658,1.0
114,1.7175111620590524,1.5574095353733484,1.0,0.0,0.47459483104496797,1.0
115,0.1785464349911103,7.525343095759767,0.0,0.0,0.8944351847722573,0.0
116,1.4240409810252812,2.7910430777367434,1.0,0.0,0.5486814451308081,1.0
117,-2.0450874310405798,-0.05430675531409923,1.0,0.0,0.5463054512306406,1.0
118,1.8706739449070384,7.9744925977231205,1.0,0.0,0.7473490148451792,1.0
119,1.5639032016638568,4.982775534439978,0.0,0.0,0.7949022777184586,0.0
120,-2.521425976003083,2.059756454961763,1.0,0.0,0.8324574104477871,1.0
121,-1.6028392661006592,2.921206010061947,1.0,0.0,0.698745179184116,1.0
122,0.48721914601285765,1.2088554826041285,0.0,0.0,0.6220973465430806,0.0
123,-0.5585440865226926,-0.04384577357026065,0.0,0.0,0.5718676745243003,0.0
124,2.1966440566561176,3.2008621036438782,0.0,0.0,0.7126112366493669,0.0
125,0.8351353640835935,1.8453457138047709,1.0,0.0,0.37870581438534884,1.0
126,2.0044957811031487,3.982931572733375,1.0,0.0,0.48918368591044215,1.0
127,2.193088116598362,2.8405183049417975,0.0,0.0,0.832320121603765,0.0
128,-0.17061064845049367,-0.8886628908687106,1.0,0.0,0.7132629882295959,1.0
129,2.101280163917811,3.2988645197789674,1.0,0.0,0.7510061172661449,1.0
130,0.17800575521592066,4.576614873581773,1.0,0.0,0.6754957665585168,1.0
131,2.6559255014414878,4.584772426712891,1.0,0.0,0.5341632374337375,1.0
132,0.34390358214615496,5.995048568748282,1.0,0.0,0.8327146752870943,1.0
133,0.8289391612352978,2.4565562323223165,1.0,0.0,0.803763639801773,1.0
134,1.767449166997039,2.7784719603092807,1.0,0.0,0.852313865219665,1.0
135,2.0893975409243875,5.5012711707759285,0.0,0.0,0.8546167406602063,0.0
136,1.0554644583080037,0.7854598514019682,0.0,0.0,0.6290308277004085,0.0
137,0.7073788085411337,-5.124299105682589,1.0,0.0,0.3765978704049929,1.0
138,-1.3241402214044573,0.9746225227343572,0.0,0.0,0.4143839482065373,0.0
139,2.062608775289707,13.546679281029757,1.0,0.0,0.6333202279987686,1.0
140,-0.5775649886992376,-1.4477705060914665,1.0,0.0,0.8720736397772586,1.0
141,0.9195016722197709,-3.059952625473337,1.0,0.0,0.6345775003873716,1.0
142,2.0625690941466925,1.7611935557951484,1.0,0.0,0.19730151545136632,1.0
143,1.1458853681323238,-2.3289951421070163,1.0,0.0,0.8736140942176122,1.0
144,0.713908685301692,5.32695733526644,1.0,0.0,0.6175852068188685,1.0
145,0.40949937437797085,3.32951024024248,1.0,0.0,0.6826244802357443,1.0
146,0.18522389011308454,2.902388799875673,0.0,0.0,0.6370482933254731,0.0
147,-0.7726536782913574,-1.9731387214874396,1.0,0.0,0.39992014399839326,1.0
148,1.4126232947769386,5.567952995110179,1.0,0.0,0.8357344761923363,1.0
149,3.1536683566587302,-0.25038299665140107,1.0,0.0,0.7613657315801134,1.0
150,2.2323292991796477,7.955464191536528,1.0,0.0,0.8627010328088763,1.0
151,2.8488893002069435,4.690187666963332,1.0,0.0,0.6920860361969396,1.0
152,1.0182428257186564,0.1534677672861604,0.0,0.0,0.364575317738357,0.0
153,1.196454905428023,3.29319141282867,1.0,0.0,0.5085397940997909,1.0
154,-0.33355329812398393,0.4112823013174297,0.0,0.0,0.5535526582457577,0.0
155,-0.8969988434363121,6.331153622367735,1.0,0.0,0.3390871783450956,1.0
156,1.3907122297713141,7.3613487690484805,0.0,0.0,0.39652338057653624,0.0
157,2.3504190953279562,5.433727962865614,1.0,0.0,0.9467616670237524,1.0
158,0.31726438358602516,3.280166386751647,0.0,0.0,0.9421847380766031,0.0
159,1.8469921273125973,1.4987966839221079,1.0,0.0,0.8787964905865122,1.0
160,-0.017113813143661755,1.8175522132188964,1.0,0.0,0.3349244509146931,1.0
161,1.2940940231348583,-1.5127884925127888,1.0,0.0,0.7073791060876163,1.0
162,1.2161594498006794,-1.2327694110224874,1.0,0.0,0.7584183282034028,1.0
163,0.8069244827388296,-2.077032254914783,0.0,0.0,0.6611606814843582,0.0
164,-0.21983116536274827,2.1038561738588193,1.0,0.0,0.6724747142724584,1.0
165,-0.486080192434797,3.8934909551045056,1.0,0.0,0.4449748465868502,1.0
166,-0.35524204466549303,-2.2317837744779774,0.0,0.0,0.3163245382447262,0.0
167,0.38608847426233034,4.884266717462409,0.0,0.0,0.7046211841643859,0.0
168,-0.18050324650077448,-0.7630842699026716,1.0,0.0,0.8015877447426534,1.0
169,1.1184363484167996,2.4727223548388757,1.0,0.0,0.22687335844112183,1.0
170,0.4118600523409917,-1.2178148550851597,1.0,0.0,0.8635387222509305,1.0
171,-0.032195248791444975,0.8737682532907345,1.0,0.0,0.5021795221695704,1.0
172,1.757079343602013,6.756746991540264,1.0,0.0,0.6855496877697652,1.0
173,0.5472806218621835,1.4059366360216494,1.0,0.0,0.6883429091911035,1.0
174,-0.37036125363455574,-2.622447996939622,0.0,0.0,0.6184143938138628,0.0
175,0.4638643259926288,6.179053717259281,0.0,0.0,0.2927803261894061,0.0
176,1.270743455083961,4.5759820844744645,1.0,0.0,0.590858322655099,1.0
177,-0.34912374100943433,6.817397329213173,1.0,0.0,0.8074890515061385,1.0
178,-0.06124102293559008,-1.753606555740821,1.0,0.0,0.7115652014280521,1.0
179,1.6808389905313934,-0.39517574091208796,1.0,0.0,0.3870663181329216,1.0
180,-0.5940529113581321,-0.9615911040527865,0.0,0.0,0.7797194790416482,0.0
181,0.490185783780911,4.266369644319664,1.0,0.0,0.6139640051948582,1.0
182,-0.021348026491110034,-0.6055390379134749,1.0,0.0,0.5350260084831147,1.0
183,-0.049619677739648815,0.3284027664546918,1.0,0.0,0.6830034725353958,1.0
184,1.410015284022549,3.0446995372596253,0.0,0.0,0.2946421523358602,0.0
185,-0.3404482617260442,0.9981847517567335,0.0,0.0,0.5606279185214644,0.0
186,-1.2971930492920056,-1.539141331565143,1.0,0.0,0.16846905296796694,1.0
187,1.7681305590728176,-0.19428118212947987,1.0,0.0,0.7039061434446998,1.0
188,0.24230954315224004,-1.8261380074626994,1.0,0.0,0.8554323144196053,1.0
189,1.2166345341027365,-0.5829767360190341,1.0,0.0,0.9227124210506013,1.0
190,-1.0242180700379704,2.5878702348160854,0.0,0.0,0.35606635424680605,0.0
191,0.5162281394813162,-1.6828116770954742,0.0,0.0,0.08754295068056564,0.0
192,1.0823422981680353,0.36138581123799574,0.0,0.0,0.3933946953323165,0.0
193,0.23013164989294865,-0.32290714630561335,0.0,0.0,0.7699881449378619,0.0
194,-0.17522235381345366,-0.22625531531419418,1.0,0.0,0.859637182095424,1.0
195,0.8717546471766826,1.9651650713178461,0.0,0.0,0.49957115672002056,0.0
196,-1.6687722772492792,1.8133239558387,0.0,0.0,0.10568819085052758,0.0
197,1.3768656349995485,0.2767475748600846,1.0,0.0,0.6271109945490603,1.0
198,1.0983441929692603,-1.1607180692597077,1.0,0.0,0.5680497253269092,1.0
199,0.1903267507912396,1.272173178894915,1.0,0.0,0.4557389019618262,1.0
200,0.5621821347158302,1.754904725691394,1.0,0.0,0.4111209237774729,1.0
201,0.7257531988589938,4.879712732059808,1.0,0.0,0.7041337913565614,1.0
202,0.5685203982312156,-0.3390109148818879,1.0,0.0,0.8615387387307286,1.0
203,3.0256321064798235,5.170911178932229,0.0,0.0,0.9504359539835594,0.0
204,0.6019144079808342,-0.2544514529503198,1.0,0.0,0.819022949774279,1.0
205,1.181164269722557,0.5372095952517084,0.0,0.0,0.5714444257573649,0.0
206,0.6213060616490484,-2.8405817521511403,1.0,0.0,0.6867419951013282,1.0
207,0.9226317836886062,-3.7627108519020718,1.0,0.0,0.2531498264024121,1.0
208,-0.13436558760365813,-1.100016722319952,1.0,0.0,0.6588581573204007,1.0
209,-0.6608314813742561,-0.04475062972767674,1.0,0.0,0.6956440785236695,1.0
210,-0.14469338384170757,7.650823025751827,1.0,0.0,0.32715148948616457,1.0
211,-0.22233791549753448,-2.777655581036539,1.0,0.0,0.5384078189204359,1.0
212,-0.09208809873103455,7.146701395940787,1.0,0.0,0.7310724088414372,1.0
213,0.10628158256131728,3.586301640039873,0.0,0.0,0.5719333137134142,0.0
214,-1.5018078799138943,1.363498285971795,1.0,0.0,0.2631422881596169,1.0
215,0.20867763848847135,2.8632216783022244,1.0,0.0,0.12922275699973382,1.0
216,1.6638414235353904,3.1161922686411714,1.0,0.0,0.8034087244966454,1.0
217,-1.3381513215529817,0.12186889699897918,1.0,0.0,0.31020026324657646,1.0
218,2.14883171616283,4.183915177232481,1.0,0.0,0.7407608108932453,1.0
219,0.499082749189549,3.344767477422322,0.0,0.0,0.648289666622034,0.0
220,1.1088957278418328,-1.8439344314054065,1.0,0.0,0.9357932159003187,1.0
221,0.8381629712237897,4.608475228490979,1.0,0.0,0.5120959572386028,1.0
222,-1.160372956238576,-0.40224713634495535,1.0,0.0,0.8323213299969131,1.0
223,0.8667469694810233,0.6796312040014141,1.0,0.0,0.6456599214561433,1.0
224,1.8138058485027946,3.7813346116309043,0.0,0.0,0.2831134930490167,0.0
225,1.1658757988187238,6.046481894238768,1.0,0.0,0.3498268521648588,1.0
226,0.7170754973824822,0.9662162707973803,0.0,0.0,0.5614174036571874,0.0
227,-1.170702428717519,1.1508499439265545,0.0,0.0,0.6512895029062932,0.0
228,0.5036758852722062,-0.04204762012308502,1.0,0.0,0.3176723363712845,1.0
229,0.16074518349127814,-1.1398750658357457,1.0,0.0,0.8916690476692123,1.0
230,1.7021166948211257,-2.237353570462252,1.0,0.0,0.9166853629586029,1.0
231,1.8842950813277417,1.0058974576801754,1.0,0.0,0.6533238729643241,1.0
232,2.0150514355149425,-4.280049972735928,1.0,0.0,0.5650060000337748,1.0
233,-0.08601406214533852,1.3067806876388317,0.0,0.0,0.7015649138465402,0.0
234,1.3816209575656997,0.12232008383573034,1.0,0.0,0.7612617914737526,1.0
235,1.5196263245803148,3.563217559321106,1.0,0.0,0.2680609213794094,1.0
236,-1.7865118926917254,-2.887703864758329,1.0,0.0,0.4779337563590851,1.0
237,0.3001808337369212,6.157172661832346,1.0,0.0,0.7052438630849305,1.0
238,1.1405296382462065,5.3880302247399925,1.0,0.0,0.5750505814085142,1.0
239,0.0714631803941681,0.8540330857614877,0.0,0.0,0.344272471736406,0.0
240,1.7726356046695046,1.937368264011103,0.0,0.0,0.5258426687560837,0.0
241,0.35447570273944023,1.4080462635670565,0.0,0.0,0.7045206615543277,0.0
242,-0.009602059426736573,1.9504345942871693,1.0,0.0,0.6837058938348994,1.0
243,-1.0029239692872776,-2.052091215939509,0.0,0.0,0.38830528728727226,0.0
244,0.6436951080988039,-1.4816238558537795,1.0,0.0,0.7700175852941783,1.0
245,0.5096441056314317,4.4791464869684505,1.0,0.0,0.834441495677698,1.0
246,0.6561823120189434,-0.21594593205623763,1.0,0.0,0.6200772467125473,1.0
247,0.6558002909146183,7.485721151708809,1.0,0.0,0.46433504262768704,1.0
248,1.293947808895187,2.1986638087800343,1.0,0.0,0.8566310880700156,1.0
249,0.673307215438239,0.028584879317846285,1.0,0.0,0.8428874333632789,1.0
250,0.8924977800873388,1.4168078658355803,1.0,0.0,0.7551029901739761,1.0
251,2.083168445785015,2.4721377409102767,1.0,0.0,0.23731115827168808,1.0
252,0.700834607914815,1.6592999286230414,1.0,0.0,0.6150278573525342,1.0
253,0.29764919171440324,-4.412515763166937,1.0,0.0,0.6238183210816821,1.0
254,1.0123271711497823,3.299514350100195,1.0,0.0,0.4990828196074701,1.0
255,1.1230714218203106,2.869379854470434,1.0,0.0,0.801820768528645,1.0
256,-0.02564044155789258,0.6305714433088129,0.0,0.0,0.7177514354571789,0.0
257,2.001336724462702,5.280332874473532,1.0,0.0,0.6998607642293353,1.0
258,1.67653207803896,4.092320910337193,0.0,0.0,0.5546054012422698,0.0
259,0.5975266901883572,4.9755605734039285,1.0,0.0,0.9330772875952685,1.0
260,0.25667099892499406,3.5303000111945715,1.0,0.0,0.8765218623588803,1.0
261,0.485527431606552,1.0692998258044188,0.0,0.0,0.3039794857277173,0.0
262,1.3033601464791427,0.12064637988427851,1.0,0.0,0.9364806946864613,1.0
263,2.5548771068065625,3.824610525019403,1.0,0.0,0.4578172409560089,1.0
264,0.6338727739510944,6.914727229620478,1.0,0.0,0.5734320332901867,1.0
265,-1.9270385984548655,1.7042154423999536,1.0,0.0,0.31133323341044644,1.0
266,1.8396233720820825,3.919564604144841,0.0,0.0,0.6148791046824869,0.0
267,0.48047852863221197,0.8682402726717496,1.0,0.0,0.6866014345918167,1.0
268,1.2690693053014852,1.203799115461778,1.0,0.0,0.33396539879555254,1.0
269,0.3183486331793187,2.8990625338096425,1.0,0.0,0.9113437611053025,1.0
270,-0.14421543898762257,3.0174223103478632,1.0,0.0,0.7761807367018648,1.0
271,1.1527888019506574,0.8059166771636768,1.0,0.0,0.5053055254828512,1.0
272,2.028777683966388,5.135171515056621,1.0,0.0,0.8693490161987804,1.0
273,2.4313080646083494,3.8335969904890295,0.0,0.0,0.6131992625757964,0.0
274,0.5984309357748264,-2.3794838544436714,1.0,0.0,0.5026583544255673,1.0
275,2.8422074547945773,4.843588205085157,1.0,0.0,0.6938062270213612,1.0
276,0.07990518020313941,2.965392868948017,0.0,0.0,0.8875653451380949,0.0
277,1.3962300937777046,0.7693793435922295,0.0,0.0,0.83590628940506,0.0
278,-0.8670534458492222,0.624859163659855,0.0,0.0,0.5479417522234147,0.0
279,0.014693064288922142,0.6081656425354964,0.0,0.0,0.8070369649593416,0.0
280,1.3237601186342824,2.133143883376527,1.0,0.0,0.45009939470647425,1.0
281,-0.14979127740648826,4.771606180681511,0.0,0.0,0.37201725414937953,0.0
282,-0.3754995358260668,0.8697674983897494,1.0,0.0,0.6845169407662387,1.0
283,1.1499784215571796,1.2999752096785475,1.0,0.0,0.8198904688801247,1.0
284,1.9516440912827262,0.9650777796156262,0.0,0.0,0.7120167852407975,0.0
285,1.0061405511037531,-1.4820365574577021,1.0,0.0,0.7546232046273152,1.0
286,1.7910124416047057,0.7560040711803628,1.0,0.0,0.27209005105890177,1.0
287,1.581354504179455,1.7937912329466337,1.0,0.0,0.9498779097771972,1.0
288,0.475215540060354,0.7017761118931397,1.0,0.0,0.7495556144427978,1.0
289,0.4893263869724622,2.787514353343153,1.0,0.0,0.8909262955703335,1.0
290,0.6521160745374046,1.1878295017266374,0.0,0.0,0.7098157663548078,0.0
291,1.9404756545915078,5.043118815847464,0.0,0.0,0.24364409986248797,0.0
292,0.30559985435925857,-0.6282583245886272,1.0,0.0,0.3547485930170113,1.0
293,-0.7063496042598256,-2.93042678068742,0.0,0.0,0.28501009390731685,0.0
294,-0.6867175444059704,1.5826389111458703,1.0,0.0,0.8892803852467318,1.0
295,1.1365220932309634,1.3442482194027678,1.0,0.0,0.8975749181986394,1.0
296,2.499139493291178,3.4751159032602907,1.0,0.0,0.48873049922140543,1.0
297,0.30200794886345167,1.1423361047090932,1.0,0.0,0.5169236527596818,1.0
298,-0.023848930025703596,5.818620859350747,1.0,0.0,0.5814444965495982,1.0
299,-0.8327807732379705,2.3157864346559593,1.0,0.0,0.5617860593811295,1.0
300,-0.05536197442119939,1.9886058241029165,1.0,0.0,0.6323971275849989,1.0
301,-0.3268233153851028,0.7975883823610548,1.0,0.0,0.7028759010246594,1.0
302,2.1172419599387773,3.0552180195751966,1.0,0.0,0.7938662350709802,1.0
303,0.3208931344840388,-0.11372005001406466,1.0,0.0,0.645792729165392,1.0
304,-0.16644597918549336,1.342116378572578,1.0,0.0,0.6822132047240462,1.0
305,1.5896783902247635,5.256273201338716,0.0,0.0,0.6277695016684912,0.0
306,0.8729854028272022,0.9148159073284997,1.0,0.0,0.6463727934379111,1.0
307,0.5084134064781445,-0.7912001823092936,1.0,0.0,0.7604127672023469,1.0
308,1.6924697229259174,7.719003561338737,1.0,0.0,0.4827481497217554,1.0
309,0.3317660008907185,-0.7350969048830507,1.0,0.0,0.4176792488938887,1.0
310,0.46987469047747327,0.7914105500107169,0.0,0.0,0.5423679556353468,0.0
311,-0.12429383171021668,-0.6803986481858558,0.0,0.0,0.7260897029717659,0.0
312,1.2430564192788371,6.356007315843715,1.0,0.0,0.7017303140434151,1.0
313,1.9527642673195078,2.2111506305040436,0.0,0.0,0.8256624216769285,0.0
314,-0.8652711422601436,-4.594043348706867,1.0,0.0,0.3522656807868182,1.0
315,1.145199458846846,1.0715108939680225,1.0,0.0,0.5158794250175283,1.0
316,2.522793082302428,3.036100513348467,0.0,0.0,0.6289971832113812,0.0
317,1.4031616188378224,8.86343446218354,1.0,0.0,0.2501385367970289,1.0
318,0.4050442994381944,1.8288307989784744,1.0,0.0,0.8458555355524743,1.0
319,0.1418304699738745,1.8421231191104992,1.0,0.0,0.700182126638994,1.0
320,0.747258988816419,1.9722884199891204,1.0,0.0,0.7503534577647266,1.0
321,1.3764257036651235,1.635915662810014,0.0,0.0,0.6916867491099531,0.0
322,-0.3907137883692684,-4.522769041800099,1.0,0.0,0.5594391443816898,1.0
323,2.4223981913340347,3.1507437391553115,1.0,0.0,0.3871800416389544,1.0
324,-1.0355162739225312,3.3041124134953286,1.0,0.0,0.6644361062050151,1.0
325,-1.6298706831936336,-0.043652254032013005,1.0,0.0,0.6046988346547915,1.0
326,-0.23261480696759734,2.488503194536085,1.0,0.0,0.48781493547522436,1.0
327,1.3691423637220972,0.6689130112302787,1.0,0.0,0.45797527108418606,1.0
328,-0.28205430215348515,3.9561759398383036,0.0,0.0,0.11155061350593198,0.0
329,2.29227425755953,-3.9628082098203388,0.0,0.0,0.339427911743754,0.0
330,0.4082059760805947,10.493732976531962,0.0,0.0,0.27443304172153304,0.0
331,1.2089589951407334,-0.41868264171785574,1.0,0.0,0.25072973697707807,1.0
332,1.6321565070869153,3.148833365311622,0.0,0.0,0.4085517477379555,0.0
333,-0.9347753561262245,0.18181246272330842,1.0,0.0,0.6072011071373535,1.0
334,1.6069513159045636,3.0430739160336735,0.0,0.0,0.924098593946225,0.0
335,0.16155613908941818,-1.2899190260301445,1.0,0.0,0.933477321304491,1.0
336,0.2763774260551872,1.7048828812435133,1.0,0.0,0.5892549374131689,1.0
337,-0.4472482849153251,3.671418463377545,0.0,0.0,0.7434518151944367,0.0
338,0.8104819800704443,-1.5251600168283164,0.0,0.0,0.7954165467249631,0.0
339,1.6389778121692675,4.736540452891413,0.0,0.0,0.6879245070120511,0.0
340,0.9734947542212611,2.4005783358534107,1.0,0.0,0.3986798584815186,1.0
341,0.587034743645246,5.13763929900866,0.0,0.0,0.5738536332517392,0.0
342,0.2710448107767704,1.5664743180013567,0.0,0.0,0.5473296544917309,0.0
343,0.7158427706955776,-2.595964254475289,1.0,0.0,0.39084233186789186,1.0
344,-0.543688638580018,2.3974539977475584,1.0,0.0,0.3052208546779072,1.0
345,-1.0721420968534812,4.662358232623082,1.0,0.0,0.5853850872200732,1.0
346,1.0693532441374805,-1.7384667488438441,0.0,0.0,0.4060468092123929,0.0
347,0.9732456128048477,3.852465996101172,1.0,0.0,0.6994928374367063,1.0
348,1.8768790047108226,6.885242273379557,1.0,0.0,0.6886973928298558,1.0
349,1.264734708237342,2.34157878692789,0.0,0.0,0.8708771227905437,0.0
350,2.5070968497428843,12.153275419939781,0.0,0.0,0.7174949613850035,0.0
351,1.5439559985707407,4.0079086765581,1.0,0.0,0.743418418542623,1.0
352,1.3079209917568007,4.9783113085100865,0.0,0.0,0.7605201315006652,0.0
353,-0.07152000161777725,0.4503293592464912,1.0,0.0,0.6492687236743403,1.0
354,2.3292642964846824,5.2504749629097605,1.0,0.0,0.856364916846496,1.0
355,-1.8986601675593617,2.946790564686023,1.0,0.0,0.38681442539648253,1.0
356,-0.5353380250784484,-1.1683608145562736,1.0,0.0,0.7222758766383726,1.0
357,1.7235238765045962,1.0036503645956258,1.0,0.0,0.888428933422284,1.0
358,1.9043346962463372,2.773344827644192,0.0,0.0,0.4562136006111658,0.0
359,0.7985354549748762,-3.308828183024502,0.0,0.0,0.2178293938280986,0.0
360,0.6539504264789153,-0.1326372661318409,1.0,0.0,0.9002812722457163,1.0
361,0.9334482667145954,4.459032567985171,0.0,0.0,0.45873586150120144,0.0
362,0.1352018212101215,3.6221914014664787,1.0,0.0,0.8400691553907933,1.0
363,-0.324112549235415,-0.08298010924794164,1.0,0.0,0.31053456418306413,1.0
364,1.9632858805690017,1.5368685696159297,1.0,0.0,0.46796412611248833,1.0
365,1.9261205881241925,-3.362499847417595,1.0,0.0,0.8649576827088011,1.0
366,-0.48604571100251026,1.1282136029112726,1.0,0.0,0.30731908751278486,1.0
367,-1.0814828353396142,1.4426239940269059,0.0,0.0,0.644030612636662,0.0
368,0.5839607784735158,-3.1995164467734627,1.0,0.0,0.40395888178901884,1.0
369,1.900767566717742,1.462967848755924,1.0,0.0,0.6899748564448426,1.0
370,0.5032238173459966,4.4783809122511835,1.0,0.0,0.6254499315412303,1.0
371,-0.25117495864376865,3.812064901369748,1.0,0.0,0.8647606469759818,1.0
372,-0.5488809195342662,-4.781752635422704,1.0,0.0,0.6164695350692505,1.0
373,0.5465371033347868,2.3557260232501447,1.0,0.0,0.758511974661801,1.0
374,0.2540803242403742,2.12186302865509,1.0,0.0,0.6200547121146875,1.0
375,0.3205305372520203,2.7080924980883263,0.0,0.0,0.954821499768318,0.0
376,1.2843125601141308,-0.1039043226864762,0.0,0.0,0.7477259514003307,0.0
377,1.0457145318477161,0.17100157967405433,0.0,0.0,0.8317264649070714,0.0
378,1.976966935450364,1.4220119817713182,0.0,0.0,0.6165836991365515,0.0
379,0.6688957029672016,1.9704547875832674,0.0,0.0,0.9839879293864529,0.0
380,1.0939249830347233,2.914109307537891,0.0,0.0,0.7341909408130869,0.0
381,0.5651157813586182,2.842012692950796,0.0,0.0,0.42349360023096144,0.0
382,0.21714534883618522,3.4848137886885873,0.0,0.0,0.3281875955557928,0.0
383,3.5866913615674645,5.9880802761844105,1.0,0.0,0.6964581696205006,1.0
384,1.3211469973800234,4.445979335289246,1.0,0.0,0.6349446163623318,1.0
385,0.17705789709330733,2.786493774543181,0.0,0.0,0.4560382279207898,0.0
386,-0.028954158772384577,3.3011650177128224,1.0,0.0,0.5336819821366368,1.0
387,0.18977078936011013,4.545812595303645,1.0,0.0,0.656619612608655,1.0
388,-0.6869537009405541,-3.910297173753831,1.0,0.0,0.6451046234348117,1.0
389,0.19828110000937665,0.2911527348601901,1.0,0.0,0.91232990453329,1.0
390,1.1048022636580073,3.463319417587349,1.0,0.0,0.9069784743397934,1.0
391,1.0420817917035752,1.7678107155348077,1.0,0.0,0.7533464081728397,1.0
392,3.7357607704986613,2.663609057830764,0.0,0.0,0.5869818144357893,0.0
393,1.623003426143136,2.6710359624543036,1.0,0.0,0.8051477711822196,1.0
394,-0.6230855413584794,2.597188385212709,1.0,0.0,0.5681451036006745,1.0
395,0.5916686715988422,3.900205868351042,1.0,0.0,0.6162774069285955,1.0
396,0.24192488217654937,3.37462128495104,0.0,0.0,0.21766222306450883,0.0
397,0.5235593907627621,-1.9986382171423744,0.0,0.0,0.5923079412857922,0.0
398,-0.23503435361058983,1.598800157735795,1.0,0.0,0.8575041953840516,1.0
399,-1.410403034172109,-0.11849770409330862,1.0,0.0,0.10075332072563836,1.0
400,-0.36478825166160483,1.4671148482442644,1.0,0.0,0.6282790661168699,1.0
401,2.5104380831649045,1.3994968081048016,1.0,0.0,0.7172617253383866,1.0
402,0.08955589709052623,-2.2111140714957904,1.0,0.0,0.7603138258980717,1.0
403,0.9119451004505919,3.4379603712343516,0.0,0.0,0.36577135871843053,0.0
404,2.0371859664514105,6.257800105893758,0.0,0.0,0.40742318709454584,0.0
405,0.28419379386073157,4.729097695814864,1.0,0.0,0.31366789329071565,1.0
406,1.7368850544870067,3.13160691220201,1.0,0.0,0.5380860113909065,1.0
407,1.3212936163404503,-0.43113074899019843,1.0,0.0,0.5381392475758202,1.0
408,3.720618384190001,3.78347721190459,0.0,0.0,0.789061499022968,0.0
409,0.7299220375010299,-1.1474462808909787,0.0,0.0,0.8916789226625095,0.0
410,0.7879318333155172,1.8520175514620723,0.0,0.0,0.14733247398578378,0.0
411,1.8049941168317536,2.4259035781811376,1.0,0.0,0.7409423268511202,1.0
412,1.6174179138488023,2.9088346603691093,0.0,0.0,0.635061114638768,0.0
413,-0.3726561277366841,3.0654357501500487,1.0,0.0,0.49828952442729735,1.0
414,1.5786950870767271,0.16819445216609896,1.0,0.0,0.7713163002249466,1.0
415,0.2365638576067338,7.035922556644651,1.0,0.0,0.23821275559158434,1.0
416,-0.034410643116805584,3.6160880158199737,0.0,0.0,0.34018809955656276,0.0
417,0.17140359097884517,0.6722717032104817,1.0,0.0,0.3037398864496765,1.0
418,0.3432837204433652,2.155034108636337,1.0,0.0,0.8313024719216726,1.0
419,-1.0880324901030067,3.5270168191107283,1.0,0.0,0.5559198938719772,1.0
420,0.6550415828574673,5.46499096379331,0.0,0.0,0.5867689310549773,0.0
421,1.5020788779686736,5.663553936034078,1.0,0.0,0.6806170023828336,1.0
422,-0.9841722564098958,-0.874944115624485,1.0,0.0,0.4407960886035152,1.0
423,1.795506735000733,7.864307886627506,1.0,0.0,0.6594250849247343,1.0
424,1.5944641651356957,-3.222171151199131,1.0,0.0,0.6779596373719708,1.0
425,-0.1952089568832448,2.608786488087704,0.0,0.0,0.4346529724233052,0.0
426,0.3745496963567462,4.829848488263881,1.0,0.0,0.8009952718198377,1.0
427,0.43866545422650305,6.0099449868813934,1.0,0.0,0.8186288171405383,1.0
428,-0.057184466844873744,-1.5829436700114041,1.0,0.0,0.14502729128511632,1.0
429,1.1298344399127278,8.995867825604838,1.0,0.0,0.4757102055152737,1.0
430,-0.8635557242457069,6.003940365514108,1.0,0.0,0.7241337093307728,1.0
431,-0.08232281198903244,-0.6565538969941731,1.0,0.0,0.5027334584125328,1.0
432,0.9235629560763997,0.2736620703342316,0.0,0.0,0.7812809532917127,0.0
433,-0.36790736875300956,2.937989674828107,1.0,0.0,0.8593296908890048,1.0
434,2.7913940909162247,9.131432139036676,1.0,0.0,0.7274987036190649,1.0
435,0.9061903433794947,2.4356569899181815,1.0,0.0,0.6432492136199192,1.0
436,1.6603982902699224,5.018107493344921,1.0,0.0,0.8130568791075103,1.0
437,1.448973974175745,5.196765176312866,1.0,0.0,0.6557139232458018,1.0
438,-0.3685745711815217,1.1920467973188382,1.0,0.0,0.4438322528448059,1.0
439,1.7370996374729726,-0.36845665300879593,0.0,0.0,0.7245112203759007,0.0
440,0.26116257921054975,3.9417590655081653,1.0,0.0,0.37046985845350866,1.0
441,0.3246952357969792,3.595201384195797,1.0,0.0,0.4071098939703855,1.0
442,-0.8188065935287785,3.5000764985052255,1.0,0.0,0.6046934820609865,1.0
443,-0.2109265464279223,-4.187565314937453,1.0,0.0,0.9521904261877503,1.0
444,2.486890686559377,3.9568117626687744,1.0,0.0,0.2722677550252715,1.0
445,-0.08613052046036113,2.0993627935276415,1.0,0.0,0.749681130296916,1.0
446,0.3747901421778722,3.423357732481957,1.0,0.0,0.38341564488752566,1.0
447,-0.7249789352391508,3.587142910557177,0.0,0.0,0.6874608950355158,0.0
448,0.24754164594316377,0.8802989731059702,0.0,0.0,0.3367374114890066,0.0
449,-1.180359217897387,-4.290612372305455,0.0,0.0,0.8009183893840153,0.0
450,1.6664713684537666,8.189633217065516,1.0,0.0,0.44526272958684554,1.0
451,-1.2208797918918952,-4.783551249255693,1.0,0.0,0.5775340896591238,1.0
452,-0.2718743508302047,5.313034188527006,1.0,0.0,0.6603961270942985,1.0
453,-0.15795019218062595,5.047947592669356,0.0,0.0,0.4758985121605926,0.0
454,1.337352649126751,0.9852955081858612,0.0,0.0,0.8831059943859834,0.0
455,1.2184853046443433,-2.7991883408817473,0.0,0.0,0.7000256947861077,0.0
456,-0.2889695422932682,1.1101875086532962,0.0,0.0,0.42108326684188235,0.0
457,1.1424030564911762,5.46275261580661,1.0,0.0,0.6002124013641517,1.0
458,0.2578613270326604,1.7733842684395942,0.0,0.0,0.5495757725631951,0.0
459,0.1137106030898285,2.6728195467280447,0.0,0.0,0.25985562466860557,0.0
460,0.27394092281562754,2.9071553950194433,1.0,0.0,0.7163273381530537,1.0
461,-3.4538930453414594,-4.7381974053287506,1.0,0.0,0.1329028632688194,1.0
462,-0.3098998342096092,-1.4489768100113003,1.0,0.0,0.26437185434146915,1.0
463,1.7245321750778717,3.8860754619085505,1.0,0.0,0.6537615109639676,1.0
464,-0.2234465676887099,-0.12266103471022805,1.0,0.0,0.6998584122401449,1.0
465,-0.6401824660114906,-0.5514204668224965,1.0,0.0,0.9404908284941746,1.0
466,0.8688041223848256,2.7721865285873446,1.0,0.0,0.6589905735040095,1.0
467,0.33922680932092386,0.43457019551028725,1.0,0.0,0.8058252473895793,1.0
468,-1.5399312551511497,-1.0955948901734351,0.0,0.0,0.65301181804759,0.0
469,0.34207545235453973,-1.2617479064469492,0.0,0.0,0.7549944963003701,0.0
470,0.3655378790057582,-1.1467113221135294,1.0,0.0,0.6554055162503905,1.0
471,0.7453193871794561,5.939441816875259,0.0,0.0,0.31062312872685716,0.0
472,1.4901778668526553,-0.48922740348872906,1.0,0.0,0.6546803891651143,1.0
473,0.2831613400728936,0.1843247415048085,1.0,0.0,0.7335434867081926,1.0
474,0.37826576618651947,1.500266196773925,0.0,0.0,0.6591252110492275,0.0
475,1.5030204788012518,5.225715373001591,0.0,0.0,0.7512148396574796,0.0
476,-1.1869308417660527,4.782956843879649,0.0,0.0,0.530408386580015,0.0
477,1.357364773912675,-1.5976564300532954,0.0,0.0,0.6890265919975774,0.0
478,0.29991964350572964,0.9369853935123909,0.0,0.0,0.8206900518847605,0.0
479,1.9879622859559967,3.0994557425830793,1.0,0.0,0.4277274235720733,1.0
480,1.1543781919062939,6.126086538534546,0.0,0.0,0.7130562226812684,0.0
481,1.264785549433931,0.1187689588654598,0.0,0.0,0.6331695621389236,0.0
482,-0.5291212567677037,1.6712537812894395,1.0,0.0,0.9371517912399101,1.0
483,1.2749160604500893,-2.912959547855501,0.0,0.0,0.731339897019759,0.0
484,0.561618856182929,5.333276030539749,1.0,0.0,0.7621119044173083,1.0
485,1.9771736815869043,0.583444115915043,1.0,0.0,0.6580032220247231,1.0
486,1.1302360645720781,-5.135861441954965,1.0,0.0,0.5533395679492326,1.0
487,2.389513414228161,1.287372088464259,0.0,0.0,0.8927811064256665,0.0
488,-0.09296153387086481,-0.25271938826143914,0.0,0.0,0.7944296006547937,0.0
489,0.9175058836320503,6.533792603621935,1.0,0.0,0.7141586946470218,1.0
490,0.7705179010612146,1.949154368536694,0.0,0.0,0.8098320166867671,0.0
491,0.44658347394341025,3.3081975752283412,1.0,0.0,0.6131552022740006,1.0
492,1.467453899762768,9.402348246001845,0.0,0.0,0.6232634019491233,0.0
493,0.3568213711750019,6.455769727457875,1.0,0.0,0.4974178479791845,1.0
494,1.1468862232409704,2.2248357949432584,1.0,0.0,0.6578963046394536,1.0
495,-0.04080790003949544,5.956616337567041,1.0,0.0,0.7068686097406097,1.0
496,0.9776636142258538,3.45365416427914,1.0,0.0,0.552123634744386,1.0
497,1.279877110376421,1.7979845780910366,0.0,0.0,0.4716288168594406,0.0
498,-0.008811711389460769,2.80347890616637,1.0,0.0,0.32949835282478984,1.0
499,2.995520395260657,6.92833841958887,0.0,0.0,0.33724493513662634,0.0
0,1.9534656112100122,3.8857014092136613,1.0,0.0,0.7592955970387708,1.0
1,1.672148096260642,3.937261361149056,1.0,0.0,0.7858016949152714,1.0
2,0.6469747742007934,2.9770061074348915,0.0,0.0,0.7441798348361037,0.0
3,0.12810209054917188,-4.245674428780826,1.0,0.0,0.7924908372031984,1.0
4,1.46864983663499,1.4029276590956374,1.0,0.0,0.33997968457882155,1.0
5,0.6881518974720503,1.9514890298145269,1.0,0.0,0.9200638634174814,1.0
6,0.24274299413584985,-0.17080394936632004,0.0,0.0,0.7206865732158787,0.0
7,0.7585267561784278,0.979037605301387,1.0,0.0,0.7199970527158662,1.0
8,-0.6000734711606055,-0.2813659932115564,0.0,0.0,0.53887072368361,0.0
9,0.9790080174278092,-0.27398915366975796,1.0,0.0,0.5238275388421084,1.0
10,-0.1213558501048945,1.3929053023343043,1.0,0.0,0.4049150124200324,1.0
11,0.14277710748738054,1.7136965109412072,1.0,0.0,0.521021542028065,1.0
12,1.672271226265758,5.361090606558985,0.0,0.0,0.9727617100006293,0.0
13,1.3769036114837987,3.638040543261993,0.0,0.0,0.4457698956166441,0.0
14,-0.6809387896761117,0.5530587850686672,0.0,0.0,0.4860619784277081,0.0
15,0.8356246578910752,-1.0595330443616748,1.0,0.0,0.43710237589694373,1.0
16,0.9626176046554658,-0.65852404732312,1.0,0.0,0.41110283213964643,1.0
17,0.11556755783945961,-1.4932191419511711,0.0,0.0,0.4516371680365276,0.0
18,-0.2449210765169151,0.5083852675800574,0.0,0.0,0.9586735150870559,0.0
19,2.4287307627561665,4.631533415988576,1.0,0.0,0.33289051568596884,1.0
20,2.231116898480101,1.4601567521500407,1.0,0.0,0.6373812923576021,1.0
21,0.14720173590690305,-3.251287406062485,1.0,0.0,0.30247871580061486,1.0
22,0.7702729300107464,1.5183284852688457,0.0,0.0,0.7748531430144974,0.0
23,1.7704256202307556,2.200564366888936,0.0,0.0,0.8177792629801928,0.0
24,1.0764420861935582,-1.3788504493844356,0.0,0.0,0.26955733732291154,0.0
25,0.011048721736901319,-1.3481965790932615,0.0,0.0,0.573746271746498,0.0
26,-0.20525470113180605,7.703711337750783,1.0,0.0,0.3516912112867383,1.0
27,1.0898270563896595,3.2718269248240537,1.0,0.0,0.3883566892417259,1.0
28,0.2572084010586993,1.0301205131748543,0.0,0.0,0.1844192321102545,0.0
29,0.42580087787154763,1.455910226362004,1.0,0.0,0.4056219799408564,1.0
30,1.5278433159191869,0.8147436255794824,1.0,0.0,0.5189490576217364,1.0
31,0.0730140318908333,0.45723909334397317,1.0,0.0,0.6625406042635711,1.0
32,-0.822651148667322,-0.5867312208514082,1.0,0.0,0.45907395856379307,1.0
33,1.3038979026604895,-1.6941465782472567,1.0,0.0,0.655944492077365,1.0
34,-1.4285455085419936,0.20995576081552425,0.0,0.0,0.26993625037456537,0.0
35,2.37497584556895,6.26760300873017,1.0,0.0,0.9548551032686933,1.0
36,2.4243379476924063,6.858361911419278,1.0,0.0,0.6418244238816744,1.0
37,0.21925377933429002,4.996577433122437,0.0,0.0,0.6859023275089258,0.0
38,-0.6413170699339115,2.7240761837423437,1.0,0.0,0.8836012885011926,1.0
39,0.6408431677340621,-3.0693292900691302,1.0,0.0,0.8860844635632611,1.0
40,-0.9706757676379789,1.719727878636527,0.0,0.0,0.35523150631119055,0.0
41,-0.37460396993554007,1.044725702154918,1.0,0.0,0.4423325505226992,1.0
42,2.338527376206472,7.672698802459707,1.0,0.0,0.8787047335860231,1.0
43,1.5705867499868809,-0.43782242378721814,0.0,0.0,0.35587033871809487,0.0
44,0.26605930928128413,-0.28787452656907797,0.0,0.0,0.8576399854379493,0.0
45,1.4884689589784463,1.8844390307441958,0.0,0.0,0.4641310543425549,0.0
46,-0.8640442024368538,-1.7885792510973526,1.0,0.0,0.31081955771897196,1.0
47,2.0079311085628198,1.7515891227418958,1.0,0.0,0.14056558007818654,1.0
48,-0.9262559355617194,2.9396889939796864,0.0,0.0,0.626865218819206,0.0
49,1.5064403540932525,5.762708483581251,1.0,0.0,0.8251118832282274,1.0
50,1.6272978383779337,-0.46243805442141817,0.0,0.0,0.5675224618597489,0.0
51,1.501988737297486,-1.7649329227328954,1.0,0.0,0.6502097494760614,1.0
52,0.004474278984600344,0.8732423682079617,0.0,0.0,0.6681241951690738,0.0
53,-0.05188085160546996,7.834751259494451,1.0,0.0,0.20826131955173735,1.0
54,0.45684472073577315,4.157747361130872,1.0,0.0,0.40268977725434824,1.0
55,-0.6637530852315097,0.48366848175824306,1.0,0.0,0.8926983598527908,1.0
56,1.1995657236950175,-0.4746583375380536,1.0,0.0,0.7362231292324061,1.0
57,0.27938175309520313,1.8182315182808082,1.0,0.0,0.5886177533603637,1.0
58,-1.0648955932449269,-0.1996899629627087,0.0,0.0,0.9161580590126147,0.0
59,0.10275166254639943,2.8333608685647933,1.0,0.0,0.4750883344457885,1.0
60,-1.1877922927790316,2.3760515458773526,0.0,0.0,0.0842425855999038,0.0
61,1.3660346385994644,0.9996215433133316,0.0,0.0,0.6273682269931352,0.0
62,1.6207232969395369,4.0798540286633225,0.0,0.0,0.7624574301461863,0.0
63,1.0996072309695688,-0.8864786297872338,0.0,0.0,0.6296609455014679,0.0
64,0.527367234743567,-3.6949909251515276,1.0,0.0,0.8739228904362554,1.0
65,0.7182027708973556,2.9713306902668695,0.0,0.0,0.7154873257903761,0.0
66,1.5504035618395744,2.102058585937339,1.0,0.0,0.8195647251689772,1.0
67,-0.807622741783582,3.24721109599684,0.0,0.0,0.19113874130997074,0.0
68,-0.32899138713662324,0.2427977585347033,1.0,0.0,0.3607281042475607,1.0
69,1.3087599430541461,3.8036540698742773,1.0,0.0,0.8024674820697133,1.0
70,0.3961807575830918,-1.2515452027468048,1.0,0.0,0.32249812598417643,1.0
71,0.7890515353631167,4.658004871490344,0.0,0.0,0.9664720675640047,0.0
72,-1.0834809201493028,2.6220476665584367,0.0,0.0,0.2937374590325948,0.0
73,1.0679856605394995,3.099310476116639,0.0,0.0,0.7958648386807118,0.0
74,2.254886740151414,2.65998584738029,1.0,0.0,0.7678948332145232,1.0
75,0.6786669019190861,0.6638331151511879,1.0,0.0,0.8391936282554393,1.0
76,0.8228442632443105,2.286183888273546,1.0,0.0,0.29405673850048103,1.0
77,0.48431511385416925,-3.183991922499062,1.0,0.0,0.7544371347309917,1.0
78,-0.07480006251718746,-2.0717315632513333,1.0,0.0,0.5144356259222036,1.0
79,0.5750254464879334,1.0174213669802858,0.0,0.0,0.4267500912414119,0.0
80,0.5219995396164141,6.516418264666111,0.0,0.0,0.6579468114681049,0.0
81,0.41462874788402865,13.25659146888858,0.0,0.0,0.4676235310666995,0.0
82,0.7558421906083881,4.40535625270807,0.0,0.0,0.585627317417408,0.0
83,0.658941921753998,2.42917704532202,1.0,0.0,0.4571463506770703,1.0
84,1.7446215597013892,1.1425284682871948,0.0,0.0,0.8430600136463144,0.0
85,0.3377241475201067,2.8580337692593245,0.0,0.0,0.8305812357798096,0.0
86,0.9804365147853096,2.987889114946451,1.0,0.0,0.5908623145923823,1.0
87,-0.7222169283629265,-2.5232001060580935,1.0,0.0,0.3701655014443982,1.0
88,0.6259222051202957,-2.6087895904136027,1.0,0.0,0.7181045600607792,1.0
89,1.9155183413717998,2.315968844672385,1.0,0.0,0.2728915019013714,1.0
90,1.469847525357095,0.8609429047080038,1.0,0.0,0.5275182915588412,1.0
91,0.30869084677463055,0.158780892901487,1.0,0.0,0.4893122302243133,1.0
92,0.07689876860040452,-0.5466562294413972,1.0,0.0,0.6086140451644567,1.0
93,1.0987660109958346,-2.072215544737178,1.0,0.0,0.5578308429819783,1.0
94,-0.9174957928353292,-0.6607455099859678,1.0,0.0,0.33706802151222676,1.0
95,-1.5907703055312805,2.099615623567292,1.0,0.0,0.5983192432034431,1.0
96,0.7930843943501453,3.403393945218703,1.0,0.0,0.7673953193309352,1.0
97,0.6462852888091348,2.2250706752965157,0.0,0.0,0.8648656841553085,0.0
98,-0.06508896260198817,0.8813894294396739,0.0,0.0,0.4887072336737315,0.0
99,2.3730708393217803,-2.762208670924854,0.0,0.0,0.489502186942885,0.0
100,0.684693034047928,-4.181307387591989,1.0,0.0,0.5926841293838324,1.0
101,1.996766631754625,1.3987830682477125,1.0,0.0,0.7829277860448444,1.0
102,0.4319593188955523,1.8514347697833513,0.0,0.0,0.14485705260027665,0.0
103,0.6917296091850592,8.316904780953834,1.0,0.0,0.35847178473986185,1.0
104,0.03702290822483972,0.14200874421269633,1.0,0.0,0.6087308127791026,1.0
105,3.3604269668473443,5.872352649931832,1.0,0.0,0.8978833867110667,1.0
106,1.2289116216104057,5.966093964698034,1.0,0.0,0.5305882257134692,1.0
107,0.5494288811032844,1.4155775026671154,1.0,0.0,0.6401665213046837,1.0
108,1.442066982262518,4.338214001008096,1.0,0.0,0.49678696688145424,1.0
109,-0.039902998136855994,5.475541446551284,1.0,0.0,0.8962094234340373,1.0
110,0.8208940843192347,1.4377917079140652,0.0,0.0,0.911302307467813,0.0
111,-0.7007717944137297,1.8195409271109813,0.0,0.0,0.38049202681983607,0.0
112,2.044585917628619,0.6782127706063401,0.0,0.0,0.650543325009568,0.0
113,0.5155196704069904,1.8597234830285194,0.0,0.0,0.9150604107613457,0.0
114,-0.27386989355484437,0.30264501773010133,0.0,0.0,0.33273133495602203,0.0
115,1.1726727306903757,-1.660392171791947,1.0,0.0,0.5629086260877314,1.0
116,0.5813689668199102,0.0900341779449394,0.0,0.0,0.8071376935830283,0.0
117,-0.15549707172636598,1.9653192601067215,1.0,0.0,0.5853434726049972,1.0
118,-0.27345154034034025,-3.1646943057521026,1.0,0.0,0.29395496529364296,1.0
119,-0.4676997985251693,1.7808258389070006,0.0,0.0,0.5008118706902098,0.0
120,1.112165647408111,1.3898277575370417,1.0,0.0,0.6855500063343537,1.0
121,0.6356052775697038,4.896332832686722,1.0,0.0,0.5849452549203448,1.0
122,2.7389737547596487,2.222892959614038,0.0,0.0,0.5607949125963639,0.0
123,1.071185964870034,2.1165287851354635,1.0,0.0,0.794774566381441,1.0
124,0.043292221425417575,-1.712302859300658,1.0,0.0,0.8172083602005707,1.0
125,0.11259914863904213,3.897844733883163,1.0,0.0,0.6857234852730855,1.0
126,0.35388449031165936,9.111491808035021,0.0,0.0,0.8868501202717314,0.0
127,1.2523795478970763,3.169015197285682,1.0,0.0,0.647643601914132,1.0
128,1.5507850591743968,2.909068354504677,1.0,0.0,0.5939687119828828,1.0
129,-0.020757941971473987,-2.355141821387175,0.0,0.0,0.6920601425168341,0.0
130,-0.5426208768215554,1.6208249252838762,0.0,0.0,0.7742297706969955,0.0
131,0.04350780966518253,-0.03632768300883338,0.0,0.0,0.706360442140974,0.0
132,3.1187041033395952,6.23952901436386,1.0,0.0,0.477094246687997,1.0
133,1.0653326309029898,0.785188502798032,1.0,0.0,0.7776948048956868,1.0
134,-0.2219343528252365,0.44644593564983137,1.0,0.0,0.4432515083829602,1.0
135,1.0211909341259282,-0.02523859684726182,0.0,0.0,0.8661830010196994,0.0
136,-0.9494451029231856,-3.857996472882634,0.0,0.0,0.7974846210933418,0.0
137,-1.0273127390475194,1.466864970297425,1.0,0.0,0.46995323774141656,1.0
138,0.1655298492492606,-2.206575250273686,1.0,0.0,0.40906725233164376,1.0
139,-1.7063491267189592,4.114104692688166,0.0,0.0,0.38213882072117267,0.0
140,-0.21044776489237663,-0.2851430920086093,1.0,0.0,0.883263171940506,1.0
141,-2.6009894855582254,-4.523144380818927,0.0,0.0,0.3041482450094325,0.0
142,1.0125420500246012,-3.3516133148852973,0.0,0.0,0.940701765890536,0.0
143,2.0016435768257472,4.5848760324361315,1.0,0.0,0.8569804587764517,1.0
144,2.1302597483592227,0.43232674609470867,0.0,0.0,0.532396738365283,0.0
145,1.580538665415553,5.445471185916519,1.0,0.0,0.5112047443462726,1.0
146,0.9666026464358437,7.135093800478291,1.0,0.0,0.5448190151679644,1.0
147,-1.1744408300469575,-0.962079364820277,1.0,0.0,0.7130735895348329,1.0
148,0.591046844820293,0.3096385798328646,1.0,0.0,0.6943538251352269,1.0
149,1.6560911337057207,1.2704183322567744,0.0,0.0,0.23182844007094444,0.0
150,-0.860790961008028,2.3079400951361984,1.0,0.0,0.4106044708297562,1.0
151,0.4573154350056583,3.5906744565524793,0.0,0.0,0.5026519611544199,0.0
152,-1.2199651424923095,-4.907772673456307,1.0,0.0,0.8324601365784109,1.0
153,0.04859542749615536,-10.531828485962404,1.0,0.0,0.265375044945849,1.0
154,-0.7951059223252716,2.389959866371698,0.0,0.0,0.8225366447169512,0.0
155,0.9583288798156013,0.38426352855153023,0.0,0.0,0.5628200001050246,0.0
156,1.819695526861747,5.575760767658916,0.0,0.0,0.6014176763129884,0.0
157,0.8495457357485252,4.015896714113168,0.0,0.0,0.6977438093990602,0.0
158,0.3247893266648745,6.226191407053961,1.0,0.0,0.8787457175694883,1.0
159,2.1904050780243938,-0.42359318067492246,1.0,0.0,0.5935353074287486,1.0
160,-0.24794774942146738,-0.46011912836257096,0.0,0.0,0.3698317060358558,0.0
161,0.5961817322790274,2.1127458924775264,1.0,0.0,0.1443670653844256,1.0
162,-1.4584939421634189,0.44769151119641415,1.0,0.0,0.5262104265867279,1.0
163,-1.093980189614891,1.5330983236314384,1.0,0.0,0.08221057176268125,1.0
164,-0.6409225541820882,4.983364689229534,1.0,0.0,0.44536107715414636,1.0
165,0.1028814527063332,-4.063634509956062,0.0,0.0,0.617631648836409,0.0
166,1.3658189137567023,1.399241623933281,1.0,0.0,0.958990760959906,1.0
167,0.09427036169342855,1.8047602838134162,1.0,0.0,0.7153435047395084,1.0
168,0.5730567528639176,6.710458179808371,1.0,0.0,0.8740488966341987,1.0
169,0.9744849660614112,4.806686103250652,1.0,0.0,0.23890303017366923,1.0
170,-0.611349273034001,5.022125893745312,1.0,0.0,0.5331680618933836,1.0
171,0.8779377086486064,1.259092234443658,1.0,0.0,0.6500015810845422,1.0
172,-0.044331328680364074,2.6441125665098686,1.0,0.0,0.42672498044217433,1.0
173,-0.35400997195356265,-1.7748739242681388,0.0,0.0,0.542531019515422,0.0
174,2.0940576063191116,-0.3717255957870158,0.0,0.0,0.6563046917581887,0.0
175,0.9187355062952568,1.2709096927135728,0.0,0.0,0.8686043618874336,0.0
176,0.4330912106368948,0.0435473240707534,1.0,0.0,0.8030840634091064,1.0
177,-0.27310054363268377,-1.4889333320300193,1.0,0.0,0.5151750856213433,1.0
178,1.9493404943182298,5.978349580575895,0.0,0.0,0.8460133128764094,0.0
179,0.2072021537834855,-5.037033745826537,1.0,0.0,0.8080789289049847,1.0
180,1.540977023132578,-0.5790721975418774,0.0,0.0,0.6003535265631762,0.0
181,1.445405601841232,0.9186847451751015,1.0,0.0,0.7288656297636397,1.0
182,0.7945336912694271,7.04854935399377,0.0,0.0,0.4440683796704042,0.0
183,1.9584323686156608,5.87910640829088,1.0,0.0,0.7023324538999295,1.0
184,0.42367796348005854,5.365664840637366,1.0,0.0,0.5188846887183346,1.0
185,1.7237038145192163,6.177751602318826,1.0,0.0,0.3178086597371079,1.0
186,0.3879512746887153,8.707153589593435,0.0,0.0,0.9096341035750178,0.0
187,2.04142711899937,5.914502589004451,0.0,0.0,0.8381239632645797,0.0
188,2.5014215592913147,5.393540102112038,1.0,0.0,0.5970963013731768,1.0
189,2.1960904616439065,2.227170203836395,1.0,0.0,0.8288382105645105,1.0
190,0.9291042629727362,-0.8212524546313218,0.0,0.0,0.8283666169672389,0.0
191,1.8809098522292318,5.779301067226657,1.0,0.0,0.6524468956932615,1.0
192,0.24376848309075794,1.7822066253065543,0.0,0.0,0.6270743481221756,0.0
193,2.730387012093533,7.500132277344964,0.0,0.0,0.5706719861263523,0.0
194,0.29984496365812724,1.8312378107074456,1.0,0.0,0.3073241741616879,1.0
195,-0.048752360600016004,0.282470232397777,1.0,0.0,0.4164546297485648,1.0
196,2.929988994037842,-1.3151509250797613,1.0,0.0,0.4623599845292259,1.0
197,1.922515860109629,5.945310970760426,1.0,0.0,0.8003075486860777,1.0
198,2.016780770166267,2.129551455117391,1.0,0.0,0.8938797215531602,1.0
199,1.5532781850455986,4.6610608395639055,0.0,0.0,0.70315310111243,0.0
200,1.1291892133461612,7.489746451324735,1.0,0.0,0.3233484009136509,1.0
201,0.13897225335422753,1.7325383568834871,1.0,0.0,0.6572381937625135,1.0
202,0.30278520937138276,-1.6870052164409501,1.0,0.0,0.5157361048076051,1.0
203,0.4049747016191379,-3.930979801964493,1.0,0.0,0.6808482937635024,1.0
204,-1.3091556660404895,0.24604362855053008,0.0,0.0,0.8781055741658086,0.0
205,1.6675939794380914,2.7719610458659503,1.0,0.0,0.6998814686493956,1.0
206,0.5352504985520029,3.651588792817567,0.0,0.0,0.70586690611661,0.0
207,0.783968011930826,3.9520451264642555,1.0,0.0,0.8088953717781552,1.0
208,-0.28542949121166217,-0.48158605570555946,1.0,0.0,0.3441756126200794,1.0
209,0.5703568906277461,4.299117695393861,0.0,0.0,0.9148851220598603,0.0
210,1.8701057362013618,2.5215850451987816,1.0,0.0,0.7915676387644928,1.0
211,0.24667000881659007,-1.2235815369709175,0.0,0.0,0.8308725066684823,0.0
212,1.0577201047514553,1.4101694532110827,1.0,0.0,0.5328008215399068,1.0
213,-1.2410571088183704,3.4507637336570367,1.0,0.0,0.3750705398186705,1.0
214,-0.9350875571305406,-3.6024596048968984,1.0,0.0,0.43675694480803184,1.0
215,-0.0889961455801996,1.6927066302012492,1.0,0.0,0.5149201907775586,1.0
216,1.563794382919582,3.928457924133742,0.0,0.0,0.5185527274158894,0.0
217,1.1254009432126433,-6.120713353305696,1.0,0.0,0.9250127103004386,1.0
218,2.9244803856928048,6.628983895887554,0.0,0.0,0.42059437181009407,0.0
219,-0.6501441371175152,1.598216831357589,1.0,0.0,0.638507939477192,1.0
220,1.3080814146706876,-0.6510885103754344,1.0,0.0,0.7439151038444313,1.0
221,1.9765152390767786,3.117164084262472,1.0,0.0,0.47951729417329414,1.0
222,1.4041226747117506,1.7277649196120992,1.0,0.0,0.26023805103538755,1.0
223,-0.62475457918334,3.8751572881863554,0.0,0.0,0.583293898162808,0.0
224,0.5175361117484061,-3.169254581494127,0.0,0.0,0.2792902196017843,0.0
225,1.963896533324999,5.63085968288825,1.0,0.0,0.7013506351764892,1.0
226,1.421591640922449,1.1078173242642948,0.0,0.0,0.7253349148994366,0.0
227,0.7766319895661788,1.516124222798499,1.0,0.0,0.7302437428599808,1.0
228,0.3523554049530709,6.1721710458911625,1.0,0.0,0.5393317472658393,1.0
229,-0.444146447260649,3.8868265820547894,0.0,0.0,0.7156681117865925,0.0
230,1.4359024342276376,7.699431778622093,0.0,0.0,0.7560684453048204,0.0
231,1.9892641138376648,3.76194099789293,0.0,0.0,0.7469817107956992,0.0
232,-0.12461872202714488,0.7222821999537242,0.0,0.0,0.7943443773896324,0.0
233,0.6249271438137447,3.3638970958401404,0.0,0.0,0.49722909767409385,0.0
234,0.8643979846079641,3.115959420024292,1.0,0.0,0.6027732443234656,1.0
235,-0.2396968716095641,-1.061325712611013,0.0,0.0,0.35440780979284814,0.0
236,1.8556677743976824,2.053388634637206,1.0,0.0,0.6477499300579699,1.0
237,1.705914662375707,3.532526894277412,1.0,0.0,0.75082257375352,1.0
238,1.1003397418472192,4.399299539150917,1.0,0.0,0.44166700647061796,1.0
239,0.28132460923839964,8.12600922055372,1.0,0.0,0.2080512837655094,1.0
240,0.5313254442800956,0.42357305011344637,1.0,0.0,0.5122601029229703,1.0
241,-0.13183422621678956,-2.3540543717095264,1.0,0.0,0.17843117265879302,1.0
242,0.9252794982506926,2.7121031379507046,0.0,0.0,0.7949470018843262,0.0
243,-1.1848558507476994,6.401109478388128,1.0,0.0,0.05470952425142927,1.0
244,0.7842540700514762,0.8464118965884644,0.0,0.0,0.8952111322842129,0.0
245,0.5550917856323381,1.0937221234074,0.0,0.0,0.7622920627620146,0.0
246,0.7972925826308055,5.942612793733688,0.0,0.0,0.4483670445424584,0.0
247,0.20550713113304167,3.725185223740516,0.0,0.0,0.9208828257644995,0.0
248,-0.5834188996711174,0.14085453876097143,1.0,0.0,0.3648285339999335,1.0
249,-0.43186667325431,-1.326406598349116,0.0,0.0,0.6020970789234508,0.0
250,1.1996280319304593,3.85190995437902,1.0,0.0,0.3729911635627669,1.0
251,-0.04847598296791896,4.11734038419047,1.0,0.0,0.570290544836088,1.0
252,-1.4804452506094665,-3.4142715572025844,0.0,0.0,0.653155367704493,0.0
253,1.43977731043908,-0.4154412742671748,1.0,0.0,0.7430086408895925,1.0
254,-0.6356887299476472,0.3876280787811306,0.0,0.0,0.7069648598037482,0.0
255,1.2597911926245098,2.5777024308239165,1.0,0.0,0.40875973716209146,1.0
256,1.6920050654816015,3.1428900403468103,0.0,0.0,0.8576113996722631,0.0
257,-0.5080428511555508,-0.5400495672699877,1.0,0.0,0.7525056318593696,1.0
258,-0.4958839474224552,-2.520181728396829,1.0,0.0,0.368196566648072,1.0
259,-1.3557366538771338,0.3517460690531218,0.0,0.0,0.861372651332612,0.0
260,0.5718482711279433,-1.4584853811986567,0.0,0.0,0.44240368768156374,0.0
261,1.5099686666637564,6.699969311100912,0.0,0.0,0.82332082662094,0.0
262,0.9832137292208353,1.7181987856715475,1.0,0.0,0.19013586977784014,1.0
263,1.6044889334672057,4.8820077385718825,1.0,0.0,0.3890843005032725,1.0
264,0.8937417558715467,2.0751761027032805,0.0,0.0,0.8576328732509586,0.0
265,1.0008908377217214,1.6388731982452611,1.0,0.0,0.7751082123392753,1.0
266,0.978857628014705,4.50884151411793,1.0,0.0,0.5590457678851998,1.0
267,1.0892986017502782,3.441176011563528,1.0,0.0,0.7112892474513162,1.0
268,-0.39874174156598174,2.561148935311902,1.0,0.0,0.41057241165778796,1.0
269,2.2928957051095407,7.199160324362523,0.0,0.0,0.826144899769671,0.0
270,-1.4056020194478651,-0.340640281607123,1.0,0.0,0.5418207336692787,1.0
271,2.1520815573447067,6.550080100087806,1.0,0.0,0.5890776443969622,1.0
272,-0.2009207127033576,0.04415624639531324,0.0,0.0,0.6975681058076808,0.0
273,1.4900509278952085,6.0122109458962685,1.0,0.0,0.5079092244943544,1.0
274,1.1507451648305975,-1.8470494151581494,1.0,0.0,0.3468183644752256,1.0
275,-0.6837145032684835,1.6269324329627517,1.0,0.0,0.3457506310308892,1.0
276,0.7203462353270373,-1.3034666494811264,1.0,0.0,0.4162366201394063,1.0
277,-0.04306910271690498,2.8142360795445773,1.0,0.0,0.6803812793119132,1.0
278,0.562916984249306,2.835750856036124,1.0,0.0,0.8706260655864876,1.0
279,0.46407255507054507,6.6720495956739105,1.0,0.0,0.767420331444362,1.0
280,-0.013468990968351802,4.0311491638407055,1.0,0.0,0.6919233101486315,1.0
281,1.948677885597934,7.968441825156864,1.0,0.0,0.49242667656710704,1.0
282,2.054812961119012,-0.20093768499099673,1.0,0.0,0.7397305949891806,1.0
283,1.005267300913241,-1.5546904632863139,0.0,0.0,0.30527097799711744,0.0
284,-0.8170025384300623,2.192895583688477,1.0,0.0,0.7440963132495101,1.0
285,0.034057640673197984,2.854551879121189,1.0,0.0,0.8134700963251612,1.0
286,2.415367550664823,0.3109817944102762,1.0,0.0,0.7910211906868861,1.0
287,0.23453804068453749,-1.901830110664155,0.0,0.0,0.522315209629226,0.0
288,2.1545357599454187,6.448498020744346,0.0,0.0,0.48168719542181493,0.0
289,2.126145353633648,7.053057115732711,0.0,0.0,0.6217884710199226,0.0
290,0.8561106219699723,3.960196865616347,1.0,0.0,0.7803710669398592,1.0
291,0.9124905137675332,1.2481806951981822,1.0,0.0,0.2955105572696695,1.0
292,0.8409773560869374,4.857081425912461,1.0,0.0,0.4331633962233978,1.0
293,-0.7393953962019195,-0.6428209405451204,0.0,0.0,0.6641249851153767,0.0
294,-1.4872090928021686,-2.227615281654445,1.0,0.0,0.7015452200061936,1.0
295,0.678130552794012,4.018200778219066,0.0,0.0,0.5069312076133182,0.0
296,2.2286806621929642,3.854811916232026,1.0,0.0,0.9528079265315681,1.0
297,0.24529304078154923,2.324686983693737,0.0,0.0,0.9943931551764188,0.0
298,-0.295642685052222,3.5415209939722354,0.0,0.0,0.6267726576067338,0.0
299,-0.12324245095702796,5.909048894598769,1.0,0.0,0.22262838848965363,1.0
300,1.0649855158889836,-1.9546215269584506,1.0,0.0,0.7401400296210154,1.0
301,0.8367689530049083,2.3894185114268724,0.0,0.0,0.6077227173521497,0.0
302,-2.2202734705626535,-4.364845616291303,0.0,0.0,0.21977906954098414,0.0
303,-0.7173919298011976,-2.601007267351961,1.0,0.0,0.8023486167899118,1.0
304,2.4624494519178457,2.3612727314800934,1.0,0.0,0.6416679743072087,1.0
305,-0.3411988635413203,5.670122050965725,0.0,0.0,0.4456472834917477,0.0
306,-0.08137619772864696,2.5259131712219007,1.0,0.0,0.7708805740760211,1.0
307,-0.4658591949038332,1.4496349937320496,0.0,0.0,0.1697511462641498,0.0
308,2.3731469193517603,8.066871709013174,1.0,0.0,0.8140088862815654,1.0
309,2.3451039951213333,6.323612647666181,0.0,0.0,0.5700837444913883,0.0
310,0.18383027408269353,3.7075398348116453,1.0,0.0,0.5263825799273615,1.0
311,1.3984856760534567,6.9148211311962315,0.0,0.0,0.916950439556446,0.0
312,0.3112632296291319,3.515539098182143,0.0,0.0,0.6698679235813398,0.0
313,1.4931489408646914,2.924386365789244,0.0,0.0,0.8744869408597009,0.0
314,0.05254274838901796,1.046787917469986,1.0,0.0,0.28855759393804425,1.0
315,-0.4410749326960227,0.823424631983249,1.0,0.0,0.41869715281578646,1.0
316,0.8531657429193826,-0.25675711459197487,1.0,0.0,0.5503847001344273,1.0
317,1.694197748585799,7.388403784151065,1.0,0.0,0.8638221542490555,1.0
318,1.1864043198165626,4.321359713978627,1.0,0.0,0.20827979756359769,1.0
319,0.29268778300148135,-2.876572594639245,1.0,0.0,0.7786292623798979,1.0
320,0.45612722751135615,1.645278771515401,0.0,0.0,0.6205971229442858,0.0
321,0.0917866368668036,1.9882979778535694,1.0,0.0,0.5555728454796156,1.0
322,-0.12129583423404353,0.0731442282560748,0.0,0.0,0.7494037607313873,0.0
323,0.09794451605602414,6.55248234736281,0.0,0.0,0.7691101441422722,0.0
324,1.795131961513829,-2.1354489019662957,1.0,0.0,0.568877089227395,1.0
325,0.44731912690848197,2.497075225083309,1.0,0.0,0.8182486964130534,1.0
326,-0.07963289804920212,1.9537150829200058,1.0,0.0,0.40570777730574875,1.0
327,0.691740190341971,9.838569729493024,0.0,0.0,0.2874720090315311,0.0
328,-0.7628551799314156,1.1367024142878783,0.0,0.0,0.7376336005832201,0.0
329,1.4432907947800961,-0.22279510831822724,0.0,0.0,0.5439236147070199,0.0
330,-2.37806857277127,0.14900644156848486,0.0,0.0,0.5372587692850859,0.0
331,0.012143751095299943,2.331134097621676,1.0,0.0,0.24451494649322036,1.0
332,0.36446636668045795,-0.8996514014353094,1.0,0.0,0.3564060717325107,1.0
333,0.9419051840256497,4.359743709550771,1.0,0.0,0.6450035255236578,1.0
334,-0.8257652198343822,2.8222607952318493,1.0,0.0,0.519787536265766,1.0
335,0.11924886022255948,4.200044754794652,0.0,0.0,0.7744792620560373,0.0
336,0.5429897563365241,-0.1709942145586852,0.0,0.0,0.5421873047844554,0.0
337,1.6057745726464394,6.753007199625386,0.0,0.0,0.8630742390155657,0.0
338,2.6060532278173874,7.280073088646526,1.0,0.0,0.7505808747936346,1.0
339,1.787893722704863,-0.15266673601344172,0.0,0.0,0.5357219304213593,0.0
340,-1.6958387598345952,-0.6674622443457368,0.0,0.0,0.4559215311298751,0.0
341,1.3112861754402079,5.066070241070916,1.0,0.0,0.6097191640257197,1.0
342,2.451167139974389,-1.8361565470187435,0.0,0.0,0.8195528025215906,0.0
343,2.0672536621151054,2.989400708531376,0.0,0.0,0.3185081531649127,0.0
344,0.7068865416277919,3.6646484937247483,0.0,0.0,0.6739123835228857,0.0
345,1.1314757025080588,1.1883803460224636,1.0,0.0,0.40260215894780155,1.0
346,2.0887707685259107,6.869982957917425,1.0,0.0,0.4978068659901762,1.0
347,1.5271009897876398,7.941048042620133,1.0,0.0,0.7765789473689887,1.0
348,0.7293389367553033,2.802809016206208,1.0,0.0,0.5489219710633132,1.0
349,-0.6637864102920652,-5.176525886923754,1.0,0.0,0.48065929328729,1.0
350,0.472277684156838,-7.0008507098526005,1.0,0.0,0.8154389043427541,1.0
351,2.0863839058384066,1.5375211022807296,0.0,0.0,0.631813853434838,0.0
352,0.43321432988291814,2.7805852326297815,1.0,0.0,0.8927487327123576,1.0
353,0.3340974185919713,2.5095070990941752,0.0,0.0,0.3540004766046985,0.0
354,1.471610132945822,-1.0966017859069457,1.0,0.0,0.7573955251493272,1.0
355,0.7426665945277128,3.982343296288683,1.0,0.0,0.8934778763806352,1.0
356,1.2717001978012592,-1.417596004799612,0.0,0.0,0.5070159250048717,0.0
357,-0.13813351288268566,-1.1351070981143476,1.0,0.0,0.3368511337239829,1.0
358,0.24919023515578995,1.5183686415897362,1.0,0.0,0.5866342743318723,1.0
359,3.0384591050960132,1.4925673437396427,1.0,0.0,0.7498133653464425,1.0
360,0.2904043631702109,1.407185130230118,0.0,0.0,0.5938757355394453,0.0
361,0.10482849727571562,1.4668813568091263,1.0,0.0,0.4555418805819837,1.0
362,0.22468774220259297,0.009122003893921399,0.0,0.0,0.4111963037708385,0.0
363,-0.9104143422952619,2.98991772447998,1.0,0.0,0.2678870925141355,1.0
364,1.1173974372538347,3.645897091852567,1.0,0.0,0.911017014158309,1.0
365,0.07890582351089083,0.6553388386176631,1.0,0.0,0.3706112347586451,1.0
366,1.804030619402056,2.6977375112565594,1.0,0.0,0.594854282165581,1.0
367,-0.038266242893895006,2.8013677713109817,1.0,0.0,0.4990538210675405,1.0
368,-0.4916690318434519,2.6401496279456866,1.0,0.0,0.3952179515897306,1.0
369,0.0216591551410021,-0.8423868811476449,0.0,0.0,0.6551887154770494,0.0
370,0.5947529753271,-2.5490653409215525,1.0,0.0,0.4256518492176,1.0
371,0.039445645111888084,6.701022895138152,0.0,0.0,0.39371332586107155,0.0
372,-0.44632281630763126,1.8277212550763593,1.0,0.0,0.8495308850628258,1.0
373,0.4844362747552739,-0.6780133107433038,1.0,0.0,0.5161704158930971,1.0
374,0.5565076150943175,-2.5867449234842756,1.0,0.0,0.8805738287085425,1.0
375,-2.153293839588231,-1.552234261854894,1.0,0.0,0.686011663469708,1.0
376,2.745239550673406,5.786341638115686,1.0,0.0,0.9425987022838463,1.0
377,-1.310381837009031,-2.535164041267505,0.0,0.0,0.14687848478404908,0.0
378,1.179285457922096,2.059051742556939,1.0,0.0,0.7110006905547985,1.0
379,0.6092407321409157,2.246972483599168,0.0,0.0,0.3402607313076601,0.0
380,-0.29809729772490157,-0.2935383388935402,1.0,0.0,0.6905872328684761,1.0
381,3.0377996184406912,6.730383003029143,0.0,0.0,0.7650219746842757,0.0
382,1.8772219866483564,-2.5047901062719387,1.0,0.0,0.6530941570962,1.0
383,0.03135452120676918,1.374166967507296,1.0,0.0,0.7559936210728597,1.0
384,-0.18496944478557492,0.971033167701538,1.0,0.0,0.29402411621197894,1.0
385,0.2070043184071334,4.100150154019627,0.0,0.0,0.622917357202515,0.0
386,2.098448421375432,6.4441563057668745,1.0,0.0,0.7968693232459003,1.0
387,1.584319479482422,1.4853291496557972,0.0,0.0,0.7336040115223307,0.0
388,2.034464194869177,-1.853500586811334,0.0,0.0,0.4783253805089468,0.0
389,0.5304801871094466,5.4799327138569645,1.0,0.0,0.7833136091278613,1.0
390,0.8772023174411377,4.055776287671059,1.0,0.0,0.6427819867098536,1.0
391,1.0918477865558525,-1.4925379267222496,1.0,0.0,0.17010077587196265,1.0
392,-0.0050435313127301165,-1.8554254963836314,0.0,0.0,0.7841301636054303,0.0
393,1.6144271271660042,2.309912800218307,1.0,0.0,0.7367773980565019,1.0
394,0.693575688807201,-2.1654986905988856,1.0,0.0,0.5755736150453072,1.0
395,1.6320513886036887,3.375860990652218,0.0,0.0,0.7988993796135281,0.0
396,0.8286025565911495,2.2414900473259642,1.0,0.0,0.7419897629624197,1.0
397,1.9869412036629304,7.134877482626546,1.0,0.0,0.27669034815972293,1.0
398,-0.9152887360140302,-0.9649106971848156,1.0,0.0,0.3916120742807621,1.0
399,1.6789537683092484,6.888611072054583,0.0,0.0,0.8693327439643823,0.0
400,0.8492521823737573,2.04695397540618,0.0,0.0,0.851576365359747,0.0
401,0.39938563010585487,2.331236858395452,0.0,0.0,0.5026591065485247,0.0
402,-0.1265330736167557,1.7477756697728983,1.0,0.0,0.7654567569340743,1.0
403,0.18685674174231057,4.629522013822956,1.0,0.0,0.552160438650804,1.0
404,-0.5725702164170579,0.4349497881512945,0.0,0.0,0.45343233643908554,0.0
405,0.40439198100049917,3.3277522048023758,1.0,0.0,0.388788556379769,1.0
406,0.6932637632073411,3.369825700296862,1.0,0.0,0.44420271015955026,1.0
407,2.4140404112462495,-0.49653241542262627,1.0,0.0,0.44214374264377804,1.0
408,-0.24034666297271445,3.624061091181664,0.0,0.0,0.8057532043600871,0.0
409,0.7900219725217338,2.4017231654773314,1.0,0.0,0.7986846248187207,1.0
410,0.48428222635810103,2.0020224043442973,0.0,0.0,0.7199373947071238,0.0
411,0.7887881958727767,1.1271063436932873,1.0,0.0,0.3572957678909051,1.0
412,-0.19277603871436622,-1.8738062143808238,1.0,0.0,0.8528263175562416,1.0
413,1.5431969825415777,2.2547112715537043,1.0,0.0,0.5091739622552374,1.0
414,1.9876800852441978,6.258552180075135,1.0,0.0,0.39000214968368124,1.0
415,-0.9862902756495159,5.475234227940623,1.0,0.0,0.6015262595628245,1.0
416,0.7308652474140589,3.978855334423383,0.0,0.0,0.7053184223311988,0.0
417,1.742355361672678,3.2311709522735788,1.0,0.0,0.7589996816392176,1.0
418,-0.45268097273301533,2.4533825978662493,1.0,0.0,0.7912751164743402,1.0
419,-0.11432446716718725,-0.3069826118891774,0.0,0.0,0.7877041067807754,0.0
420,1.6731822509938643,6.651831157018115,1.0,0.0,0.5957760258965968,1.0
421,-0.3899646849615694,2.3012013880581303,1.0,0.0,0.7769662469536518,1.0
422,1.3950737687900445,3.6532139982331224,1.0,0.0,0.28128542109888516,1.0
423,-0.2421400702966096,-0.9775498215395132,0.0,0.0,0.6299830319993198,0.0
424,0.6987095570611488,0.7464340609733645,1.0,0.0,0.45171630378764344,1.0
425,0.19875403855199714,4.988413559968469,0.0,0.0,0.3547372551244017,0.0
426,-0.2494084232795981,2.5107454404400604,1.0,0.0,0.5803595702257224,1.0
427,0.2679589032899876,-0.44687548419427836,0.0,0.0,0.5305498707358505,0.0
428,1.2778922689810652,7.111878328679807,0.0,0.0,0.6734458688886336,0.0
429,0.11149577387034412,0.4270597839546312,1.0,0.0,0.6459904107698978,1.0
430,0.774106776148086,1.26726718319697,1.0,0.0,0.5273746859255366,1.0
431,0.105135837045675,-0.43619679502932684,0.0,0.0,0.6598795168193278,0.0
432,1.7141789318507188,4.321745228411926,0.0,0.0,0.3030394912314837,0.0
433,1.1505919059334195,-2.9350978118333386,1.0,0.0,0.21738565093971604,1.0
434,-0.4713561824452047,1.1526931763761248,1.0,0.0,0.6273011775440466,1.0
435,1.0147636445635175,-1.9525922453060536,0.0,0.0,0.7560329076699215,0.0
436,1.3369359730395987,7.048006657364228,0.0,0.0,0.27389309811105783,0.0
437,2.357229084926422,6.5843186137169845,0.0,0.0,0.7137389313450135,0.0
438,1.5089809978112647,-0.08234818599398985,1.0,0.0,0.4687800321018669,1.0
439,1.2253934495009715,3.8157592227124266,1.0,0.0,0.5215307960378721,1.0
440,-0.07226812111628167,5.767380532982889,1.0,0.0,0.447917320885829,1.0
441,0.7499492724511088,-0.2983137340987088,1.0,0.0,0.5207004447891597,1.0
442,1.0685588425512875,6.989915629978354,1.0,0.0,0.7827596250620319,1.0
443,1.259256728054834,7.057206666301885,1.0,0.0,0.539997071535725,1.0
444,2.799795570077897,6.247796602913959,1.0,0.0,0.7078560758596222,1.0
445,-1.0344076364417962,-0.2934767808221672,1.0,0.0,0.7013873522056632,1.0
446,0.8943026349750632,2.568176311799208,1.0,0.0,0.7156696563064003,1.0
447,1.0320093530605225,1.6262297301868043,1.0,0.0,0.6371879850530492,1.0
448,1.8997072050430261,2.4219911473949347,0.0,0.0,0.5956722626965604,0.0
449,2.1095924639592067,4.845945916125768,1.0,0.0,0.18384419708082594,1.0
450,-0.06487498526952035,0.6415467771241492,1.0,0.0,0.4830113012980261,1.0
451,2.054375542011484,2.4894310762023015,1.0,0.0,0.16574862664738557,1.0
452,0.8105977547700856,0.31070528923403185,1.0,0.0,0.5680675880445056,1.0
453,-0.5505126386601247,0.881339857770745,1.0,0.0,0.5468801927507498,1.0
454,1.182369961524354,-1.9117734596706177,1.0,0.0,0.25605263825910224,1.0
455,0.267816009246058,4.310601661073314,0.0,0.0,0.19620287503058792,0.0
456,0.46159109178097557,2.3898757427378134,1.0,0.0,0.5520894947137381,1.0
457,1.6858130019197148,5.194468112723223,1.0,0.0,0.9485030759853785,1.0
458,0.3219665752410745,3.70700061998046,0.0,0.0,0.5054319091454336,0.0
459,0.3018930997925246,0.391560935112233,0.0,0.0,0.4265216080037741,0.0
460,0.6546307571957894,-1.836853037506219,1.0,0.0,0.8408549251960493,1.0
461,1.6673530051236927,5.284551057671022,1.0,0.0,0.689398036488084,1.0
462,0.5966379063057984,1.739051148736648,0.0,0.0,0.7029120622680516,0.0
463,-0.5152644398161212,-0.7105667805829168,0.0,0.0,0.6193451076850808,0.0
464,2.09200288274389,2.9386518565772053,1.0,0.0,0.4781962348522434,1.0
465,-0.6857585130713391,-2.8029157391496575,1.0,0.0,0.24017449921705922,1.0
466,0.10595063126104226,-8.106381402143542,1.0,0.0,0.4946317811661475,1.0
467,0.8991549767880536,5.474189372100355,1.0,0.0,0.16866836320695364,1.0
468,2.9822242791103775,10.133412511224915,1.0,0.0,0.9030095789165064,1.0
469,0.27396247104121585,5.5313350033860695,1.0,0.0,0.4796940937796554,1.0
470,-1.314396444427162,0.4601989764184513,1.0,0.0,0.7138431429238776,1.0
471,1.833962826384025,2.5595646101990255,0.0,0.0,0.8864093569440283,0.0
472,0.4201592103032391,-0.5993497371827541,0.0,0.0,0.4082306041531007,0.0
473,0.8359899095330459,-1.081367805661332,1.0,0.0,0.8001646241070552,1.0
474,-0.026227391661096028,-2.8590211196509103,1.0,0.0,0.7524393382975675,1.0
475,0.282213469777419,4.6311870592832705,0.0,0.0,0.7736814314490978,0.0
476,-0.1292889080101466,5.347770032732626,1.0,0.0,0.4933825573192345,1.0
477,1.1025062705175654,1.111928880296374,1.0,0.0,0.836150222418168,1.0
478,-0.3670720162966468,2.990122036359756,1.0,0.0,0.6676386989680926,1.0
479,1.1194715910798787,4.146436203178789,0.0,0.0,0.38491268442090065,0.0
480,0.7895202472440459,-2.686976545787249,0.0,0.0,0.5836374460143662,0.0
481,1.3545025770737968,5.520487412217073,1.0,0.0,0.7821117537380154,1.0
482,0.5302398851152783,6.2299061954410835,1.0,0.0,0.5613450732669581,1.0
483,3.3980285458857966,5.068476628888543,0.0,0.0,0.7370890777549579,0.0
484,2.1956670181622946,5.125529495407105,1.0,0.0,0.7578367788047502,1.0
485,-0.2067045348408314,2.21757256391623,0.0,0.0,0.4193776466975685,0.0
486,2.861488188853836,13.096955319314109,1.0,0.0,0.9200282558046041,1.0
487,0.7295297940331091,2.8072148804745396,1.0,0.0,0.3731676363969222,1.0
488,3.0176780443217464,5.27941508034537,1.0,0.0,0.8574400290129084,1.0
489,1.1353405037150148,2.185341944614183,0.0,0.0,0.6889614205505775,0.0
490,-0.09904606258599931,4.07150674945185,0.0,0.0,0.5061142453919488,0.0
491,-0.19656288129281493,9.529186115064054,0.0,0.0,0.36841379958447196,0.0
492,0.7725098713298343,7.342006219572006,1.0,0.0,0.8602249741124913,1.0
493,0.6069359695748848,4.950369106795576,0.0,0.0,0.48418893194941015,0.0
494,1.7057004096683488,1.2466895272753757,1.0,0.0,0.42163569600539313,1.0
495,0.8248710373927689,1.8060999066289884,1.0,0.0,0.8374247415532764,1.0
496,-0.903710294379602,0.370023075765501,1.0,0.0,0.47731598103195455,1.0
497,-0.026272984624664764,1.9785345250988644,1.0,0.0,0.5852971988025238,1.0
498,0.8162159456079856,3.2855300087343933,1.0,0.0,0.29336086687825536,1.0
499,-0.23077513978244094,3.9686597133047385,1.0,0.0,0.6579639523150905,1.0
